<?xml version="1.0" encoding="utf-8"?>
<!-- Generator: Adobe Illustrator 16.0.0, SVG Export Plug-In . SVG Version: 6.00 Build 0)  -->
<!DOCTYPE svg PUBLIC "-//W3C//DTD SVG 1.1//EN" "http://www.w3.org/Graphics/SVG/1.1/DTD/svg11.dtd">
<svg version="1.1" id="レイヤー_1" xmlns="http://www.w3.org/2000/svg" xmlns:xlink="http://www.w3.org/1999/xlink" x="0px"
	 y="0px" width="42.53px" height="42.248px" viewBox="0 0 42.53 42.248" enable-background="new 0 0 42.53 42.248"
	 xml:space="preserve">
<rect x="10" y="10" fill="#FFFFFF" width="22" height="22"/>
<path fill="#E10615" d="M21.125,3.635c-9.94,0-18,8.059-18,18s8.06,18,18,18c9.941,0,18-8.059,18-18S31.067,3.635,21.125,3.635z
	 M26.133,14.875l-1.905,0.001c-1.494,0-1.783,0.71-1.783,1.751v2.298h3.563l-0.465,3.598h-3.098v9.231h-3.717v-9.231h-3.105v-3.598
	h3.105v-2.653c0-3.08,1.881-4.756,4.629-4.756c1.315,0,2.446,0.098,2.776,0.142V14.875L26.133,14.875z"/>
</svg>
