<?xml version="1.0" encoding="utf-8"?>
<!-- Generator: Adobe Illustrator 16.0.0, SVG Export Plug-In . SVG Version: 6.00 Build 0)  -->
<!DOCTYPE svg PUBLIC "-//W3C//DTD SVG 1.1//EN" "http://www.w3.org/Graphics/SVG/1.1/DTD/svg11.dtd">
<svg version="1.1" id="レイヤー_1" xmlns="http://www.w3.org/2000/svg" xmlns:xlink="http://www.w3.org/1999/xlink" x="0px"
	 y="0px" width="103.01px" height="40.496px" viewBox="0 0 103.01 40.496" enable-background="new 0 0 103.01 40.496"
	 xml:space="preserve">
<g opacity="0.4">
	<g>
		<g>
			<g opacity="0.85">
				<g opacity="0.85">
					<g>
						<path fill="#EAF1DE" d="M39.879,6.166c-0.396-0.204-0.823-0.405-1.25-0.669l0.034-1.385c-0.093-0.352-0.294-0.252-0.46-0.264
							c-0.308,0.324-0.159,1.087-0.204,1.604c-0.209,0.39-0.45,0.717-0.66,1.107c-0.801,0.117-14.956-2.402-15.758-2.287
							c-0.53-0.095-1.059-0.248-1.588-0.4c-0.062-0.18-0.125-0.356-0.153-0.53l0.033-1.388c1.244,0.9,1.495-1.278,2.267-1.514
							c1.531,1.383,15.25,1.268,16.889,2.311c0.36,0.258,0.722,0.455,1.083,0.653c0.214,0.826,0.393,1.707,0.572,2.529
							C40.415,6.029,40.18,6.072,39.879,6.166z"/>
					</g>
					<g>
						<path fill="#F9FBF5" d="M37.999,5.453c0.045-0.518-0.104-1.28,0.204-1.604c0.166,0.012,0.368-0.088,0.46,0.264l-0.034,1.385
							C38.43,5.483,38.197,5.467,37.999,5.453z"/>
					</g>
					<g>
						<path fill="#EAF1DE" d="M5.156,28.646c-0.917,0.742-0.866-1.334-0.074-2.49c0.032,0.06,0.096,0.18,0.127,0.239
							C5.191,27.144,5.173,27.896,5.156,28.646z"/>
					</g>
					<g>
						<path fill="#F9FBF5" d="M5.209,26.396c-0.291,1.021,0.078,2.317-0.512,1.929C4.712,27.689,4.663,26.992,5.209,26.396z"/>
					</g>
					<g>
						<path fill="#DCE8C9" d="M92.851,36.609l-1.608,0.406c-0.609,0.714-1.205,1.411-1.813,2.125
							c-0.123-0.471-0.278-0.944-0.433-1.418c0.3-1.423-0.393-1.705-0.559-3.104c-0.437,0.143-0.873,0.284-1.31,0.483
							c0.01-0.402,0.018-0.75,0.027-1.153c0.741-0.353,1.139-0.265,1.595,0.114c0.542-0.424,1.048-0.676,1.296,0.094
							c0.571-0.189,1.176-0.438,1.781-0.682l0.3,0.021c0.146,0.646,0.293,1.295,0.452,1.996C92.67,35.847,92.761,36.2,92.851,36.609
							z"/>
					</g>
					<g>
						<path fill="#EAF1DE" d="M89.429,39.141c-0.202,0.043-0.437,0.142-0.638,0.242c-0.693-0.279-1.487-0.51-1.875-1
							c-3.28-0.642-6.656-2.906-10.196-2.408c-1.715-0.643-3.463-1.348-5.657-2.892c0.47-0.136,0.94-0.271,1.441-0.416
							c1.323,0.385,3.107,0.916,4.632-0.247c2.223,0.334,3.31,2.259,5.411,0.678c0.199,0.015,0.432,0.031,0.631,0.045
							c0.771,1.213,1.245,2.229,1.894,1.523c0.009-0.403,0.018-0.75,0.026-1.097c0.333,0.024,0.632,0.046,0.964,0.069
							c-0.001,0.058-0.003,0.173-0.004,0.23c0.298,0.022,0.63,0.046,0.963,0.07c0.033,0.002,0.1,0.007,0.133,0.009
							c-0.009,0.404-0.018,0.751-0.027,1.153c0.438-0.199,0.874-0.341,1.31-0.483c0.166,1.399,0.859,1.682,0.559,3.104
							C89.151,38.196,89.307,38.67,89.429,39.141z"/>
					</g>
					<g>
						<path fill="#DCE8C9" d="M85.074,34.666c-0.649,0.705-1.124-0.311-1.894-1.523c0.663,0.105,1.292,0.266,1.92,0.427
							C85.091,33.916,85.083,34.263,85.074,34.666z"/>
					</g>
					<g>
						<path fill="#DCE8C9" d="M82.548,33.098c-2.102,1.581-3.188-0.344-5.411-0.678c-1.525,1.163-3.31,0.632-4.632,0.247
							c-0.501,0.145-0.972,0.28-1.441,0.416c-0.133-0.01-0.232-0.017-0.332-0.024c-0.089-0.467-0.178-0.936-0.3-1.408
							c-0.658,1.051-1.466,0.068-1.915,0.731c-0.626-0.277-1.286-0.496-1.914-0.717c-2.688-0.365-4.272-2.329-6.514-1.854
							c-1.203-1.185-3.288-0.352-4.76-1.439l-1.097-0.078l-0.51,0.483c-1.791-0.205-3.621-0.414-5.412-0.619
							c-0.023-0.407-0.082-0.758-0.139-1.167l0.532-1.348c0.296,0.138,0.535-0.078,0.802-0.174l1.097,0.077
							c0.599,0.043,1.164,0.084,1.761,0.127c0.758,0.233,1.487,0.457,2.214,0.68c0.234-0.449,0.463-0.889,0.698-1.338
							c0.265,0.02,0.499,0.036,0.797,0.058c0.275,1.061,1.056,0.421,1.575,0.98c0.302-0.095,0.637-0.187,0.938-0.224
							c0.364,0.196,0.755,0.407,1.117,0.602c0.876,0.931,0.98,2.209,1.722,1.801c0.424,0.319,0.609-0.42,0.976-0.451
							c1.081,0.713,0.806-0.29,1.109-0.498l1.297,0.093c0.717,0.629,1.149,0.66,1.582,0.691l1.097,0.078
							c0.061,0.237,0.088,0.526,0.146,0.817c0.202-0.098,0.436-0.14,0.638-0.239c0.762,0.168,1.492,0.279,2.22,0.447
							c0.123,0.471,0.211,0.939,0.299,1.408c0.856,0.408,0.718-0.758,0.99-1.026c0.2,0.014,0.432,0.03,0.631,0.044
							c0.034,0.002,0.1,0.008,0.166,0.013l1.085,0.598l2.393,0.172l0.777,0.924c0.333,0.023,0.665,0.047,0.964,0.068l1.583,0.632
							l1.596,0.115c0.426,0.261,0.854,0.467,1.282,0.672C82.354,32.854,82.451,32.976,82.548,33.098z"/>
					</g>
					<g>
						<path fill="#DCE8C9" d="M80.044,11.011c-0.067,0.054-0.104,0.166-0.171,0.217c-0.913,0.573-1.604,0.234-2.248,0.708
							c-0.2-0.298-0.411-0.612-0.611-0.911c-0.331-0.08-0.567,0.075-0.804,0.232c-0.169,0.104-0.336,0.148-0.506,0.252
							c-0.294-0.194-0.623-0.392-0.916-0.644c0.116-0.801,0.233-1.603,0.358-2.461c0.5-0.02,0.968-0.102,1.435-0.186
							c0.496,0.152,0.959,0.301,1.456,0.394c0.265,0.021,0.411-0.491,0.651-0.763c0.606-0.304,0.886,0.527,1.383,2.008
							c-0.003,0.114-0.006,0.229-0.007,0.287L80.044,11.011z"/>
					</g>
					<g>
						<path fill="#B2CD87" d="M87.823,19.893c-0.175,0.334-0.349,0.668-0.492,1.063c-0.954,0.914-1.365,1.404-2.133,1.523
							c-0.784-0.636-1.148-0.718-1.589-0.402l-0.012,0.519L82.5,22.517c-0.063-0.179-0.125-0.355-0.154-0.532
							c-0.593-0.273-1.153-0.486-1.748-0.703c-0.265-0.076-0.528-0.209-0.791-0.346c-0.104,0.107-0.205,0.217-0.339,0.265
							l-0.3-0.021c-0.435,0.083-0.869,0.111-1.303,0.195c-0.512-2.291-0.862-0.177-1.256-0.379
							c-0.907,0.396-1.791-0.303-2.385-0.461c-0.364-0.082-0.761-0.227-1.125-0.312l-1.096-0.079
							c0.108-1.727-1.012-0.823-1.389-1.775c-0.161-0.242-0.322-0.425-0.484-0.612c-0.299-0.021-0.631-0.045-0.964-0.069
							c-0.273,0.268-0.393,1.127-0.818,0.806c-0.121-0.525-0.277-0.941-0.433-1.416c-0.332-0.022-0.63-0.045-0.956-0.358
							l-0.299-0.021c-0.182,0.271-0.336,0.501-0.518,0.772c-0.291-0.367-0.614-0.795-0.938-1.166
							c-0.101,0.051-0.203,0.161-0.305,0.268c-0.695-0.167-1.391-0.331-2.087-0.439c-0.133-0.009-0.299-0.021-0.465-0.033
							l0.033-1.384c-0.349-0.719-0.841-1.043-1.41-0.911c0.01-0.404,0.019-0.75,0.028-1.154c0.2-0.043,0.435-0.142,0.636-0.184
							c0.86,0.232,1.051-0.736,1.451-0.766c0.065,0.005,0.099,0.008,0.166,0.013c0.2,0.299,0.41,0.613,0.61,0.911
							c0.722,0.456,1.082-0.674,1.623-1.039c0.099,0.007,0.199,0.014,0.333,0.023c0.461,0.317,0.947,0.651,1.408,0.968
							c0.199,0.014,0.432,0.03,0.632,0.044c1.144,0.893,1.559,0.229,1.768-0.162c0.165,0.07,0.328,0.198,0.459,0.322
							c0.224,0.363,0.414,0.781,0.638,1.146c0.62,0.563,0.79-0.982,1.289-1.007c0.326,0.202,0.626,0.388,0.952,0.59
							c0.29,0.424,0.614,0.795,0.936,1.222c0.298,0.079,0.42-0.894,0.811-0.522c0.192,0.363,0.381,0.781,0.606,1.145
							c0.723,0.398,0.193-1.145,0.831-1.328c0.199,0.015,0.431,0.032,0.631,0.047c0.001-0.059,0.004-0.174,0.006-0.29
							c0.2,0.015,0.432,0.032,0.631,0.046l0.212-1.893c0.644-0.474,1.334-0.135,2.248-0.708l-0.054,2.253
							c0.053,0.181,0.101,0.35,0.154,0.53c0.161,0.243,0.323,0.429,0.451,0.61c-0.201,1.488-0.78,0.639-1.135,1.596
							c-0.079,0.456-0.156,0.913-0.199,1.374c0.091,0.354,0.181,0.763,0.306,1.118c0.297,0.08,0.627,0.218,0.923,0.355
							c0.764,0.055,1.496,0.107,2.26,0.162c0.294,0.195,0.439-0.256,0.646-0.53c-0.064-1.509-1.193-1.646-0.885-3.358
							c1.212,0.779,1.905,1.061,2.705,1.003c0.625,0.335,1.249,0.668,1.875,0.942l0.499,0.037c0.122,0.471,0.276,0.944,0.432,1.418
							C87.84,19.14,87.832,19.49,87.823,19.893z"/>
					</g>
					<g>
						<path fill="#A2C26F" d="M70.263,19.153c-0.367,0.089-0.768,0.118-1.137,0.207c-0.199-0.014-0.432-0.03-0.631-0.045
							c-0.097-0.123-0.196-0.188-0.292-0.309c-0.391-0.211-0.755-0.407-1.118-0.603c-0.33-0.138-0.736,0.121-0.958-0.355
							c-0.426-0.264-0.821-0.465-1.249-0.671c-0.269,0.099-0.536,0.137-0.805,0.231c0.09,0.586,0.17,1.114,0.26,1.697l-0.013,0.52
							c0.122,0.471,0.211,0.938,0.3,1.408c-0.105,0.223-0.208,0.391-0.346,0.553c-0.2-0.015-0.433-0.031-0.632-0.045l-0.797-0.058
							c-0.092-0.296-0.185-0.591-0.279-0.829c-0.5,0.022-0.968,0.104-1.469,0.127c-0.032-0.06-0.095-0.18-0.127-0.241
							c-0.13-0.125-0.226-0.248-0.325-0.312c-0.917,0.743-1.348,0.711-1.78,0.68c-0.203-1.285-0.671-1.204-0.944-0.876
							c-0.301,0.036-0.636,0.128-0.938,0.222c0.026,0.349,0.083,0.701,0.107,1.105c-0.05,0.344-0.109,0.744-0.159,1.088
							c-0.4,0.028-0.768,0.117-1.137,0.208c-0.448,0.603-0.803,0.23-1.149,0.726c-0.201-0.182-0.419-0.381-0.619-0.563
							c-0.208,0.152-0.436,0.32-0.644,0.473c-0.096-0.181-0.192-0.36-0.32-0.543c-0.299-0.021-0.632-0.045-0.931-0.066
							c-0.232,0.161-0.444,0.309-0.677,0.471c-0.79-0.403-1.195-0.145-1.41-0.909l-0.797-0.058c-0.105,0.513-0.222,1.083-0.338,1.65
							l-0.5-0.035c0.017-0.693,0.032-1.326,0.047-1.961c-0.167-0.012-0.299-0.021-0.466-0.033c-0.257,1.021-0.815,0.691-1.314,0.715
							c-0.056,0.398-0.105,0.745-0.161,1.144c-0.334,0.034-0.67,0.126-0.97,0.162c-0.33-0.083-0.627-0.218-0.958-0.3
							c-0.067,0.053-0.103,0.164-0.171,0.219c-0.664-0.047-1.362-0.098-2.061-0.147l-0.52,0.829
							c-0.127-0.24-0.289-0.424-0.451-0.609l-0.797-0.058c-0.264-0.075-0.528-0.212-0.791-0.346
							c-0.431-0.088-0.827-0.231-1.257-0.321c0.01-0.404,0.018-0.752,0.028-1.154c0.349-0.67,0.947-0.626,1.263,0.091
							c0.371-0.325,0.786-0.69,1.156-1.015c-0.229-0.305-0.417-0.554-0.645-0.856c-1.616,0.752-1.92-1.872-3.609-2.225
							c0.285-0.847,0.869-0.167,1.147-0.727l2.394,0.172c0.136-0.105,0.304-0.21,0.473-0.255c0.019-0.809,0.04-1.674,0.059-2.483
							c-0.33-0.138-0.626-0.274-0.958-0.356c-0.812,0.578-1.075,0.443-1.255-0.379c-0.37,0.325-0.787,0.691-1.157,1.016
							c-0.354-0.487-0.14-1.108-0.427-1.648c-0.1-0.007-0.2-0.015-0.332-0.024c-0.354-0.546-14.062-3.609-14.417-4.098
							c-0.327-0.254-0.656-0.451-0.951-0.646c-0.328-0.196-0.623-0.392-0.95-0.646c-1.023-0.361-2.003,1.649-2.547-0.702
							c0.242-0.386,0.451-0.718,0.659-1.051c0.49,0.382,0.678-0.53,0.817-0.809c0.443-0.431,0.335-1.479,0.705-1.625
							c0.529,0.152,1.058,0.306,1.588,0.4c0.191,0.362,0.414,0.782,0.605,1.144c-0.068,1.439,14.188,3.907,14.743,4.409
							c0.815,0.695,0.424-1.066,0.997-1.315c0.303-0.151,0.639-0.302,0.976-0.451c0.134,0.01,0.3,0.022,0.465,0.034
							c0.365,0.084,0.76,0.228,1.125,0.312c0.234,1.347,0.452,1.999,0.891,1.741c0.328,0.196,0.656,0.393,0.95,0.646
							c-0.167,0.453-0.331,0.896-0.498,1.351l-0.499-0.036c-0.492,1.12-0.275,1.771-0.191,2.471
							c0.301-0.092,0.635-0.126,0.937-0.221c0.599,0.043,1.196,0.086,1.761,0.127c0.131,0.125,0.197,0.187,0.326,0.31
							c0.192,0.306,0.417,0.61,0.612,0.855c0.437-0.142,0.713-0.585,0.831-1.327c0.36,0.256,0.721,0.455,1.116,0.657
							c0.247-0.56,0.585-0.825,0.951-0.741c0.227,0.248,0.418,0.551,0.645,0.855c0.373-0.262,0.745-0.524,1.116-0.729l0.785,0.576
							c0.691,0.339,0.495-1.236,0.997-1.315c0.362,0.141,0.727,0.226,1.124,0.368c-0.199,1.202-0.396,2.4-0.585,3.543
							c0.684-0.702,1.175-0.379,1.748,0.704c0.2,0.014,0.433,0.03,0.632,0.044c0.102-0.107,0.204-0.158,0.339-0.264
							c0.295,0.195,0.623,0.392,0.95,0.646c0.01-0.404,0.018-0.75,0.026-1.095c0.271-0.213,0.509-0.369,0.812-0.521
							c0.012-0.52,0.502-0.138,0.938-0.223c0.008-0.347,0.018-0.751,0.025-1.097c0.536-0.135,1.072-0.27,1.609-0.461
							c0.326,0.312,0.651,0.623,0.943,0.934c0.334-0.271,0.649-0.526,0.984-0.797c0.526,0.27,1.054,0.48,1.582,0.691
							c0.166,0.012,0.332,0.024,0.465,0.033c0.696,0.108,1.392,0.272,2.087,0.439c0.102-0.106,0.204-0.217,0.305-0.268
							c0.324,0.371,0.647,0.799,0.938,1.166c0.182-0.271,0.336-0.501,0.518-0.772l0.299,0.021c0.326,0.313,0.624,0.336,0.956,0.358
							c0.156,0.475,0.313,0.891,0.433,1.416c0.951-0.797,1.35-0.769,1.782-0.736c0.162,0.188,0.323,0.37,0.484,0.612
							C70.475,18.648,70.369,18.871,70.263,19.153z"/>
					</g>
					<g>
						<path fill="#DCE8C9" d="M68.866,10.729c-0.421,0.896-0.611,1.864-1.01,1.893c-0.2-0.014-0.433-0.03-0.632-0.044
							c0.014-0.577,0.026-1.097,0.04-1.673c0.436-0.144,0.84-0.287,1.277-0.487C68.67,10.542,68.767,10.665,68.866,10.729z"/>
					</g>
					<g>
						<path fill="#CEDFB3" d="M62.63,11.149l-0.797-0.057l-1.608,0.404c-0.366-0.026-0.765-0.054-1.129-0.08l-1.097-0.079
							c-0.144-0.821-0.296-1.697-0.439-2.518c-0.307,0.324-0.649,0.705-0.99,1.027c-0.144,0.453-0.32,0.902-0.499,1.352
							c-0.332-0.024-0.63-0.045-0.962-0.069c-0.032-0.061-0.095-0.18-0.159-0.301c-0.675,0.356-1.381,0.653-2.088,1.007
							c-0.061-0.236-0.089-0.41-0.152-0.591c-0.425-0.318-0.818-0.636-1.244-0.896c-0.343,0.438-0.652,0.82-0.996,1.316
							c-0.349-0.72-0.733-1.382-1.083-2.044c0.346-0.553,0.69-1.049,1.003-1.604c0.362,0.201,0.757,0.401,1.116,0.66
							c0.538-0.194,1.072-0.33,1.61-0.464L53.91,8.27c0.175-0.334,0.317-0.73,0.492-1.063c0.333,0.024,0.631,0.046,0.957,0.358
							c0.331,0.082,0.627,0.219,0.957,0.358c0.431,0.088,0.826,0.231,1.257,0.321c0.528,0.151,1.058,0.307,1.589,0.399
							c1.13,0.026,2.23-0.011,3.362-0.046c0.031,0.12,0.095,0.238,0.16,0.301L62.63,11.149z"/>
					</g>
					<g>
						<path fill="#DCE8C9" d="M61.633,12.467c-0.201,0.042-0.436,0.141-0.636,0.184c-0.249-0.371-0.524-0.782-0.772-1.153
							l1.608-0.404C61.849,11.787,61.546,11.939,61.633,12.467z"/>
					</g>
					<g>
						<path fill="#DCE8C9" d="M60.764,15.408c-0.334,0.271-0.649,0.526-0.984,0.797c-0.292-0.311-0.617-0.622-0.943-0.934
							c-0.538,0.191-1.073,0.326-1.609,0.461l-2.359-1.556c0.07-0.168,0.141-0.335,0.18-0.564c0.367-0.034,0.768-0.119,1.135-0.151
							c0.471-0.198,0.973-0.334,1.443-0.473c0.451,0.385,0.952,0.812,1.403,1.197c0.528,0.155,1.059,0.25,1.588,0.405
							C60.773,15.063,60.768,15.234,60.764,15.408z"/>
					</g>
					<g>
						<path fill="#DCE8C9" d="M57.64,12.41c-0.463-0.203-0.954-0.418-1.416-0.621c-0.062-0.237-0.124-0.415-0.154-0.59
							c0.179-0.449,0.355-0.898,0.499-1.352c0.341-0.322,0.683-0.703,0.99-1.027c0.143,0.82,0.296,1.696,0.439,2.518
							C57.857,11.676,57.748,12.07,57.64,12.41z"/>
					</g>
					<g>
						<path fill="#DCE8C9" d="M49.438,14.365c-0.371,0.204-0.743,0.467-1.116,0.729c-0.227-0.305-0.418-0.607-0.645-0.855
							c-0.365-0.084-0.704,0.182-0.951,0.741c-0.395-0.202-0.756-0.401-1.116-0.657c-0.117,0.742-0.394,1.186-0.831,1.327
							c-0.194-0.245-0.419-0.55-0.612-0.855c-0.129-0.123-0.195-0.185-0.326-0.31c0.007-0.288,0.013-0.519,0.02-0.808
							c1.015-2.067,2.396-1.334,3.709-0.603L48.7,11.77c0.599,0.043,1.163,0.083,1.762,0.126c-0.003,0.115-0.005,0.23-0.007,0.288
							C50.114,12.915,49.778,13.635,49.438,14.365z"/>
					</g>
					<g>
						<path fill="#DCE8C9" d="M46.09,27.709l-0.012,0.519l-0.818,0.81c-0.2-0.015-0.432-0.032-0.632-0.047
							c-0.298-0.078-0.089,0.979-0.976,0.451c-0.1-0.007-0.2-0.014-0.332-0.023c-0.365-0.084-0.728-0.226-1.092-0.31l-0.477-0.901
							c-0.3-0.022-0.632-0.045-0.931-0.067c-0.668,0.126-1.305,0.253-1.941,0.438c-0.526-0.27-1.053-0.479-1.581-0.691
							c-0.436,0.143-14.192-2.346-14.63-2.146c-0.167,0.046-0.336,0.148-0.505,0.253c-0.892-0.295-1.784-0.534-2.678-0.77
							c0.014-0.577,0.026-1.098,0.04-1.673c0.566-0.018,1.167-0.092,1.734-0.165c0.43,0.146,0.859,0.292,1.29,0.381
							c0.372-0.26,14.096,2.167,14.468,1.904c0.169,0.296,0.313,0.549,0.48,0.844l2.692,0.192c0.228,0.189,0.424,0.379,0.65,0.626
							c0.105-0.225,0.209-0.389,0.312-0.556c0.234,0.017,0.433,0.031,0.633,0.045c0.532,0.038,1.096,0.079,1.594,0.114
							c0.766-0.003,1.5-0.067,2.268-0.126l0.299,0.021C46.104,27.133,46.098,27.42,46.09,27.709z"/>
					</g>
					<g>
						<path fill="#A2C26F" d="M18.594,22.095l-0.033,1.386c-0.27,0.155-0.54,0.309-0.811,0.52l-1.596-0.113
							c-0.362-0.309-0.747-0.637-1.11-0.947c-0.438,0.258-0.234,1.487-0.824,1.098c-0.492-0.326-0.029-1.563-0.599-1.43
							c-0.424-0.322-0.641,0.358-1.142,0.436c-0.008,0.348-0.018,0.751-0.025,1.098c-0.372,0.202-0.742,0.352-1.111,0.498
							l-0.499-0.035c-0.403,0.145-0.839,0.287-1.276,0.487c-0.001,0.056-0.004,0.172-0.005,0.229
							c-0.213,0.269-0.438,0.552-0.652,0.82c-0.499-0.036-1.029-0.131-1.436,0.186c-0.126-0.298-0.219-0.593-0.312-0.889
							c0.236-1.08,0.473-2.164,0.709-3.244c0.077-0.399,0.151-0.74,0.194-1.142c0.06-0.171,0.117-0.335,0.178-0.509
							c0.168-0.103,0.305-0.208,0.472-0.254c0.328,0.196,0.623,0.39,0.95,0.646c0.091,0.354,0.183,0.707,0.306,1.119
							c0.371-0.204,0.741-0.35,1.11-0.498l1.275,0.959c0.166-1.376,0.18-1.952,0.193-2.529c0.138-0.164,0.242-0.33,0.345-0.496
							c0.79,0.402,1.092,0.311,1.156-1.016c0.615-0.649,0.893-1.149,1.29-1.063c1.129,0.139,1.225,1.706,1.722,1.797l0.777,0.926
							c0.465,0.032,0.964,0.068,1.423,0.334C19.052,21.029,18.806,21.591,18.594,22.095z"/>
					</g>
					<g>
						<path fill="#DCE8C9" d="M17.724,25.095c-0.331,1.308-0.924,1.034-1.449,0.708c-0.225,1.083-0.716,0.699-0.978,0.506
							c-0.86,1.154-1.981,0.727-2.24,0.419c0.122-0.684,0.233-1.313,0.345-1.941l0.798,0.057c0.365,0.027,0.764,0.056,1.13,0.083
							c0.202-0.102,0.436-0.143,0.638-0.244c0.066-0.285,0.119-0.51,0.185-0.795L17.75,24C17.738,24.52,17.731,24.809,17.724,25.095
							z"/>
					</g>
					<g>
						<path fill="#DCE8C9" d="M13.917,3.205c0.338-0.264,0.029-1.212,0.97-0.219C14.554,3.02,14.252,3.113,13.917,3.205z"/>
					</g>
					<g>
						<path fill="#DCE8C9" d="M11.922,26.877c-0.742,0.408-1.285,0.832-1.482,2.147c-0.201,0.044-0.436,0.143-0.638,0.244
							c-0.333-0.024-0.665-0.048-0.963-0.069l-0.013,0.52c-0.529-0.154-1.101,0.093-1.317,0.773
							c-0.573,0.305-0.817-0.637-1.243-0.957c-0.08-0.814-0.159-1.688-0.273-2.506c0.503-0.137,0.972-0.275,1.477-0.473
							c0.001-0.057,0.004-0.171,0.005-0.23c0.407-0.316,0.938-0.222,1.436-0.186c0.213-0.269,0.438-0.552,0.652-0.82
							c0.361,0.483,0.736,0.984,1.096,1.466c0.596,0.159,0.095-1.149,0.665-1.339C11.521,25.919,11.724,26.404,11.922,26.877z"/>
					</g>
					<g>
						<path fill="#EAF1DE" d="M90.043,20.283c-0.302,0.094-0.637,0.186-0.971,0.219l-0.021,0.865c-0.253,0.85,0.39,0.434,0.453,1.94
							l-0.797-0.057c-0.16-0.301-0.319-0.544-0.473-1.133c-0.287-0.37-0.615-0.792-0.904-1.163c0.143-0.395,0.317-0.729,0.492-1.063
							c0.432,0.031,0.831,0.059,1.263,0.09c0.014-0.577,0.027-1.153,0.04-1.674c0.332,0.024,0.665,0.048,0.963,0.069
							c0.34-0.321,1.079-0.558,1.289,0.383c0.241,1.057-0.518,0.771-0.537,1.577L90.043,20.283z"/>
					</g>
					<g>
						<path fill="#EAF1DE" d="M87.417,17.32l-0.499-0.037c-0.627-0.274-1.251-0.607-1.875-0.942
							c-0.067,0.052-0.137,0.163-0.173,0.275c-0.593-0.273-1.152-0.486-1.747-0.702c-0.335,0.093-0.377-0.953-0.785-0.576
							c-0.09-0.411-0.183-0.766-0.305-1.18c0.896-1.264,1.554-0.931,2.751-0.899l0.776,0.923c0.237-0.156,0.612-0.535,0.799,0.057
							c-0.401,1.418,0.589,0.389,0.771,1.153c0.153,0.531,0.306,1.119,0.426,1.707C87.521,17.154,87.453,17.264,87.417,17.32z"/>
					</g>
					<g>
						<path fill="#EAF1DE" d="M80.071,9.857c-0.498-1.48-0.777-2.312-1.383-2.008c-0.24,0.271-0.386,0.783-0.651,0.763
							c0.265,0.021,0.411-0.491,0.651-0.763C79.294,7.546,79.574,8.377,80.071,9.857z"/>
					</g>
					<g>
						<path fill="#EAF1DE" d="M80.064,10.145c0.001-0.058,0.004-0.173,0.007-0.287C80.068,9.971,80.065,10.086,80.064,10.145z"/>
					</g>
					<g>
						<path fill="#EAF1DE" d="M75.146,8.404c-0.125,0.858-0.242,1.66-0.358,2.461c-0.664-0.104-1.292-0.267-1.923-0.369
							c-0.47-1.189-1.567-1.269-2.053-0.437c-0.705,0.24-0.884,0.747-1.149,0.727l-0.797-0.058
							c-0.099-0.063-0.195-0.187-0.326-0.312l-2.659-1.578c-0.527-0.115-1.062-0.231-1.589-0.346l-1.608,0.405
							c-0.065-0.063-0.128-0.181-0.16-0.301c-1.132,0.035-2.232,0.072-3.362,0.046c-0.531-0.093-1.061-0.248-1.589-0.399
							c-0.431-0.09-0.826-0.233-1.257-0.321c-0.33-0.14-0.626-0.276-0.957-0.358c-0.326-0.313-0.625-0.334-0.957-0.358
							c-0.174,0.333-0.317,0.729-0.492,1.063l-0.796-0.057c-0.538,0.134-1.072,0.27-1.61,0.464c-0.359-0.259-0.754-0.459-1.116-0.66
							c-0.313,0.556-0.657,1.052-1.003,1.604c-0.267,0.039-0.536,0.137-0.805,0.23c-0.432-0.03-0.831-0.058-1.263-0.089
							c-0.951-0.647-1.314-0.73-1.588-0.403c-0.864-0.062-1.695-0.121-2.559-0.183c-0.361-0.599-0.696-1.153-1.057-1.752
							c0.448-0.604,0.955-0.914,1.615-0.694c0.276-0.441,0.52-0.888,0.83-1.328c0.469-0.082,1.025,0.305,1.449-0.763
							c0.456,0.438-0.091,2.479,0.751,2.021c0.295,0.191,0.078-0.458,0.313-0.557c0.533-0.039,1.069-0.078,1.601-0.117
							c0.298,0.079,0.453,0.553,0.645,0.856c0.267,0.019,0.5,0.035,0.798,0.056c0.014-0.576,0.026-1.095,0.04-1.672
							c-0.328-0.197-0.656-0.395-0.951-0.59c0.046-0.516,0.121-0.916,0.199-1.374c0.398,0.029,0.665,0.049,0.93,0.068
							c0.255,0.48,0.51,0.903,0.765,1.442c1.084-0.847,2.375,0.863,2.923-1.179c0.81,0.926,1.571-0.233,2.274-1.802l18.344,1.315
							c0.02,0.58,0.074,1.104,0.126,1.686c-0.746,0.583-0.936,1.552-0.863,2.714c0.297,0.078,0.627,0.217,0.957,0.356
							c0.146-0.567,0.326-1.133,0.505-1.64c0.409,0.671,0.808,1.324,1.217,1.994C76.114,8.303,75.646,8.385,75.146,8.404z"/>
					</g>
					<g>
						<path fill="#EAF1DE" d="M68.517,32.382c0.449-0.663,1.257,0.319,1.915-0.731c0.123,0.473,0.211,0.941,0.3,1.408
							C69.909,32.654,69.524,34.822,68.517,32.382z"/>
					</g>
					<g>
						<path fill="#EAF1DE" d="M53.556,30.152c-1.145,0.553-3.322-0.297-4.666,0.243c-0.421,0.894-0.553-0.56-0.924-0.354
							c-0.294-0.195-0.524-0.385-0.785-0.578c-0.067-0.004-0.133-0.009-0.167-0.011c-0.376,0.435-0.812,0.519-1.754-0.415
							l0.818-0.81l0.012-0.519c0.464,0.092,0.96,0.241,1.423,0.391l0.797,0.058c1.791,0.205,3.621,0.415,5.412,0.619l0.51-0.483
							l1.097,0.078c1.472,1.088,3.557,0.255,4.76,1.439c2.242-0.475,3.826,1.489,6.514,1.854c-4.018,0.983-6.65-1.748-10.668-0.765
							c-0.328-0.197-0.951,0.799-0.957-0.358C54.481,30.449,54.019,30.302,53.556,30.152z"/>
					</g>
					<g>
						<path fill="#EAF1DE" d="M44.629,28.99c-0.298-0.078-0.089,0.979-0.976,0.451C44.54,29.969,44.331,28.912,44.629,28.99z"/>
					</g>
					<g>
						<path fill="#EAF1DE" d="M42.229,29.108c0.364,0.084,0.727,0.226,1.092,0.31C42.956,29.334,42.593,29.192,42.229,29.108z"/>
					</g>
					<g>
						<path fill="#EAF1DE" d="M22.163,25.993c-2.006,0.377-2.878,2.048-4.225,2.703c-1.179,0.549-2.508,0.456-3.688,1.122
							c-0.636,0.127-1.092-0.309-1.583-0.633c-0.731-0.053-1.496-0.108-2.227-0.161c0.198-1.315,0.741-1.739,1.482-2.147
							c0.367-0.03,0.769-0.117,1.136-0.149c0.259,0.308,1.38,0.735,2.24-0.419c0.262,0.193,0.752,0.577,0.978-0.506
							c0.525,0.326,1.118,0.6,1.449-0.708c0.033,0.003,0.099,0.008,0.166,0.014c0.431,0.089,0.827,0.233,1.256,0.38
							c0.102-0.11,0.205-0.217,0.339-0.265C20.379,25.459,21.271,25.698,22.163,25.993z"/>
					</g>
					<g>
						<path fill="#EAF1DE" d="M17.925,2.626c-0.033-0.002-0.1-0.008-0.167-0.013l0.045-1.904c0.399,0.029,0.599,0.043,0.798,0.058
							c0.293,0.253,0.52,0.558,0.778,0.866C18.907,1.944,18.433,2.314,17.925,2.626z"/>
					</g>
					<g>
						<path fill="#EAF1DE" d="M9.801,29.269c-0.295-0.136-0.089,0.976-0.976,0.45l0.013-0.52C9.137,29.22,9.468,29.244,9.801,29.269
							z"/>
					</g>
					<g>
						<path fill="#CEDFB3" d="M94.87,32.883c-0.059,1.094-0.093,2.535-1.373,3.194c-0.204,0.161-0.441,0.317-0.646,0.532
							c-0.089-0.409-0.181-0.763-0.272-1.117c-0.159-0.701-0.306-1.351-0.452-1.996c0.268-0.098,0.535-0.136,0.804-0.233
							C93.708,32.801,94.272,32.841,94.87,32.883z"/>
					</g>
					<g>
						<path fill="#CEDFB3" d="M91.827,33.475c-0.604,0.244-1.21,0.492-1.781,0.682c-0.248-0.77-0.753-0.518-1.296-0.094
							c-0.036,0.114-0.105,0.223-0.14,0.28c-0.069,0.11-0.137,0.164-0.173,0.275c-0.428-0.205-0.856-0.409-1.283-0.67
							c-0.033-0.002-0.1-0.006-0.133-0.009c-0.795-1.562-0.725-0.342-0.958-0.301c-0.332-0.023-0.631-0.045-0.964-0.069
							c-0.628-0.161-1.257-0.321-1.92-0.427c-0.2-0.014-0.432-0.03-0.631-0.045c-0.098-0.122-0.194-0.244-0.292-0.309
							c-0.204-1.23-0.944-0.936-1.282-0.672l-1.596-0.115c-0.775-0.979-1.013-0.765-1.25-0.609
							c-0.132-0.009-0.232-0.016-0.332-0.022c-0.299-0.021-0.631-0.045-0.964-0.068l-0.777-0.924
							c0.171-0.22,0.345-0.495,0.518-0.772l1.895,0.136c0.332,0.024,0.665,0.048,0.963,0.069c0.329,0.198,0.624,0.391,0.951,0.646
							c0.756,0.4,0.84-0.345,1.136-0.208c0.206-0.216,0.408-0.375,0.646-0.531l0.777,0.923c1.384,0.561,2.606-0.449,3.809,0.793
							c0.332,0.024,0.631,0.045,0.964,0.068c0.533-0.019,1.067-0.097,1.602-0.173c0.19,0.417,0.415,0.78,0.604,1.199
							C90.546,32.746,91.393,32.113,91.827,33.475z"/>
					</g>
					<g>
						<path fill="#CEDFB3" d="M81.74,13.905c-0.264,1.255-0.879,0.574-1.316,0.716c-0.128-0.182-0.291-0.367-0.451-0.61
							c-0.053-0.181-0.101-0.35-0.154-0.53l0.054-2.253c0.067-0.051,0.104-0.163,0.171-0.217
							C80.622,11.919,81.163,12.94,81.74,13.905z"/>
					</g>
					<g>
						<path fill="#CEDFB3" d="M76.775,14.072c-0.2-0.015-0.432-0.032-0.631-0.047c-0.165-0.07-0.328-0.196-0.491-0.324
							c0.018-0.75,0.034-1.441,0.051-2.192c0.169-0.104,0.337-0.148,0.506-0.252c0.179,0.879,0.393,1.704,0.572,2.525
							C76.779,13.898,76.777,14.014,76.775,14.072z"/>
					</g>
					<g>
						<path fill="#B2CD87" d="M98.791,29.002c-0.104,0.168-0.208,0.332-0.344,0.497c-0.298-0.081-0.628-0.219-0.925-0.355
							c0.026,0.751,0.053,1.507,0.08,2.259c-0.565,0.02-1.186,0.899-1.735,0.165c-0.337,0.208-0.676,0.472-0.982,0.739
							c-0.224-0.362-0.414-0.782-0.605-1.143c-0.597-0.043-1.196-0.086-1.761-0.127c-1.075,0.444-2.14,0.368-3.203,0.292
							c-0.535,0.076-1.069,0.154-1.602,0.173c-0.333-0.023-0.632-0.044-0.964-0.068c-1.203-1.242-2.425-0.232-3.809-0.793
							l-0.777-0.923c-0.555-1.89-1.009-0.997-1.411-0.91c-0.229-0.132-0.427-0.263-0.658-0.337
							c-0.799-1.385-1.177-0.894-1.262-0.089c-0.101-0.008-0.199-0.015-0.333-0.025c-0.633,0.013-1.267,0.083-1.901,0.153
							c-0.127-0.241-0.222-0.419-0.318-0.602c0.225-1.082,0.128-1.203,0.032-1.385c-0.393-0.261-0.713,0.585-0.824,1.039
							c-0.88,0.631-2.011,0.55-2.865,0.081c-0.365-0.081-0.76-0.226-1.123-0.367c-0.458-0.38-0.78,0.579-0.984,0.797
							c-0.263-0.134-0.526-0.27-0.791-0.346c-0.599,0.015-0.67-1.204-1.403-1.199c-0.489-0.438-0.417,0.779-0.65,0.763
							c-0.431-0.09-0.86-0.234-1.255-0.379c-0.329-0.196-0.657-0.395-0.952-0.588c-0.404,0.204-0.227,1.139-0.657,1.051
							l-1.297-0.093l-1.096-0.079c-0.229-0.191-0.424-0.377-0.651-0.625c0.005-0.23,0.013-0.52,0.02-0.807
							c-0.849-0.697-0.938,0.279-1.27,0.197c-0.067-0.005-0.101-0.007-0.166-0.012c-0.928-1.569-1.449-0.684-1.762-0.128
							c-0.3,0.037-0.636,0.129-0.938,0.224c-0.519-0.56-1.3,0.08-1.575-0.98c-0.298-0.021-0.532-0.038-0.797-0.058
							c-0.224-0.194-0.428-0.371-0.652-0.566c-0.433-0.031-0.831-0.06-1.264-0.091c-0.334,0.154-0.641,0.296-0.975,0.45
							c-0.295-0.194-0.624-0.392-0.952-0.588l-0.81,0.459l-1.097-0.075c-0.229-0.19-0.424-0.377-0.619-0.566
							c0.116-0.568,0.233-1.138,0.338-1.65l0.797,0.058c0.215,0.765,0.62,0.506,1.41,0.909c0.233-0.162,0.445-0.31,0.677-0.471
							c0.299,0.021,0.632,0.045,0.931,0.066c0.127,0.183,0.224,0.362,0.32,0.543c0.208-0.152,0.437-0.32,0.644-0.473
							c0.199,0.181,0.418,0.38,0.619,0.563c0.346-0.495,0.701-0.123,1.149-0.726c0.369-0.091,0.737-0.18,1.137-0.208
							c0.05-0.344,0.109-0.744,0.159-1.088c-0.023-0.404-0.081-0.757-0.107-1.105c0.302-0.094,0.637-0.186,0.938-0.222
							c0.273-0.328,0.742-0.409,0.944,0.876c0.432,0.031,0.864,0.063,1.78-0.68c0.099,0.063,0.195,0.187,0.325,0.312
							c0.032,0.062,0.096,0.181,0.127,0.241c0.5-0.023,0.968-0.104,1.469-0.127c0.094,0.238,0.187,0.533,0.279,0.829l0.797,0.058
							c0.2,0.014,0.433,0.03,0.632,0.045c0.137-0.162,0.241-0.33,0.346-0.553c0.098,0.123,0.194,0.245,0.326,0.312
							c0.087,0.356,0.187,0.764,0.273,1.118c0.207-0.331,0.45-0.719,0.657-1.051c0.225,0.363,0.414,0.781,0.639,1.145l1.895,0.135
							c0.208-0.153,0.435-0.321,0.644-0.475c0.23,0.075,0.428,0.205,0.657,0.339c-0.001,0.055-0.004,0.17-0.005,0.229
							c0.297,0.137,0.626,0.276,0.924,0.356l0.511-0.484c0.191,0.361,0.415,0.724,0.605,1.143c0.731,0.052,1.496,0.106,2.227,0.158
							c0.343-0.436,0.75-0.754,0.964,0.069c0.431,0.089,0.827,0.233,1.255,0.38c0.874-0.285,1.383,0.677,2.255,0.393
							c0.297,0.139,0.626,0.275,0.923,0.355c0.192,0.302,0.347,0.777,0.784,0.634c0.341-0.38,0.683-0.702,0.99-1.027
							c0.192,0.362,0.416,0.724,0.605,1.142l1.296,0.093l0.818-0.808c0.15,0.304,0.295,0.596,0.446,0.9
							c0.264,0.075,0.527,0.21,0.791,0.346c-0.049,0.628,0.386,0.545,0.785,0.574c0.372-0.261,0.777-0.464,1.149-0.727
							c0.363,0.085,0.727,0.225,1.09,0.368c0.438-0.258,0.622,0.449,0.944,0.876c0.37-0.325,0.785-0.69,1.156-1.016
							c0.099,0.065,0.195,0.188,0.291,0.311c0.878,0.932,0.968-0.045,1.296,0.092c0.034,0.002,0.1,0.008,0.167,0.014
							c0.025,0.349,0.084,0.699,0.107,1.105c0.328,0.197,0.656,0.394,0.951,0.589c0.185-2.125,0.847-0.576,1.322-1.004
							c0.672,2.534,1.762,0.127,3.025,0.216c0.007-0.287,0.012-0.519,0.019-0.807c0.464,0.091,0.959,0.242,1.423,0.391
							C98.813,28.077,98.803,28.484,98.791,29.002z"/>
					</g>
					<g>
						<path fill="#C1D69E" d="M81.517,30.249c-0.296-0.137-0.38,0.608-1.136,0.208c-0.327-0.256-0.622-0.448-0.951-0.646
							c-0.298-0.021-0.631-0.045-0.963-0.069l-1.895-0.136c-0.173,0.277-0.346,0.553-0.518,0.772l-2.393-0.172l-1.085-0.598
							c-0.066-0.005-0.132-0.01-0.166-0.013c-0.199-0.014-0.432-0.03-0.631-0.044c-0.587-0.506-0.882-0.7-1.11-0.948
							c-0.038,0.229-0.108,0.397-0.18,0.566c-0.728-0.168-1.458-0.279-2.22-0.447c-0.198-0.474-0.4-0.958-0.598-1.432
							c0.233,0.017,0.162-1.2,0.65-0.763c0.733-0.005,0.804,1.214,1.403,1.199c0.265,0.076,0.528,0.212,0.791,0.346
							c0.204-0.218,0.527-1.177,0.984-0.797c0.362,0.142,0.758,0.286,1.123,0.367c0.854,0.469,1.984,0.55,2.865-0.081
							c0.111-0.454,0.431-1.3,0.824-1.039c0.096,0.182,0.193,0.303-0.032,1.385c0.096,0.182,0.191,0.361,0.318,0.602
							c0.634-0.07,1.269-0.141,1.901-0.153c0.134,0.01,0.232,0.018,0.333,0.025c0.085-0.805,0.463-1.296,1.262,0.089
							c0.231,0.074,0.428,0.205,0.658,0.337c0.402-0.087,0.855-0.979,1.411,0.91C81.925,29.874,81.722,30.033,81.517,30.249z"/>
					</g>
					<g>
						<path fill="#CEDFB3" d="M73.662,30.206l-1.085-0.598L73.662,30.206z"/>
					</g>
					<g>
						<path fill="#CEDFB3" d="M71.78,29.552c-0.272,0.269-0.134,1.435-0.99,1.026c-0.088-0.469-0.177-0.938-0.299-1.408
							c0.071-0.169,0.142-0.337,0.18-0.566C70.898,28.852,71.192,29.046,71.78,29.552z"/>
					</g>
					<g>
						<path fill="#CEDFB3" d="M72.009,12.92c-0.5,0.024-0.669,1.57-1.289,1.007c-0.224-0.364-0.414-0.782-0.638-1.146
							c-0.131-0.124-0.294-0.252-0.459-0.322c-0.209,0.391-0.624,1.055-1.768,0.162c0.399-0.028,0.589-0.996,1.01-1.893l0.797,0.058
							c0.266,0.021,0.445-0.486,1.149-0.727c0.115,0.761,0.265,1.464,0.413,2.226C71.487,12.479,71.749,12.67,72.009,12.92z"/>
					</g>
					<g>
						<path fill="#CEDFB3" d="M68.271,28.723c-0.202,0.1-0.436,0.142-0.638,0.239c-0.059-0.291-0.086-0.58-0.146-0.817l0.187-0.854
							C67.87,27.764,68.073,28.249,68.271,28.723z"/>
					</g>
					<g>
						<path fill="#C1D69E" d="M67.263,10.904c-0.549,0.711-0.974,0.391-1.442,0.474c-0.001,0.058-0.004,0.174-0.005,0.231
							c-0.134-0.009-0.233-0.017-0.333-0.023c-0.22,0.443-0.444,0.896-0.664,1.34c-0.521-0.5-1.367,0.074-1.735-1.225
							c-0.4,0.029-0.59,0.998-1.451,0.766c-0.087-0.527,0.216-0.68,0.2-1.374l0.797,0.057l0.053-2.251l1.608-0.405
							c0.527,0.115,1.063,0.231,1.589,0.346l2.659,1.578C68.103,10.617,67.699,10.761,67.263,10.904z"/>
					</g>
					<g>
						<path fill="#CEDFB3" d="M67.223,12.577c-0.461-0.317-0.946-0.651-1.408-0.968c0.001-0.058,0.004-0.173,0.005-0.231
							c0.468-0.083,0.893,0.237,1.442-0.474C67.249,11.48,67.237,12,67.223,12.577z"/>
					</g>
					<g>
						<path fill="#CEDFB3" d="M63.511,27.282c-0.304,0.208-0.028,1.211-1.109,0.498c-0.367,0.031-0.552,0.771-0.976,0.451
							c-0.742,0.408-0.846-0.87-1.722-1.801c0.208-0.153,0.436-0.32,0.645-0.474c0.065,0.005,0.099,0.007,0.166,0.012
							c0.705,1.148,0.856,0.352,1.25,0.609c0.227,0.248,0.422,0.434,0.651,0.625L63.511,27.282z"/>
					</g>
					<g>
						<path fill="#CEDFB3" d="M54.912,26.377c-0.101-0.007-0.201-0.015-0.333-0.024c-0.727-0.223-1.456-0.447-2.214-0.68
							c-0.598-0.043-1.163-0.083-1.761-0.127l-1.097-0.077c-0.268,0.096-0.506,0.312-0.802,0.174l-0.532,1.348
							c0.057,0.409,0.115,0.76,0.139,1.167L47.513,28.1c-0.463-0.149-0.958-0.299-1.423-0.391c-0.049-0.294-0.097-0.584-0.145-0.878
							l-0.299-0.021c-0.768,0.059-1.501,0.123-2.268,0.126c0.259-1.08,0.459-1.065,1.009-1.836c0.326,0.202,0.626,0.388,0.952,0.589
							c0.046-0.517,0.126-1.089,0.206-1.661c0.3-0.036,0.636-0.128,0.97-0.162l1.894,0.136l0.5,0.035
							c0.194,0.189,0.39,0.376,0.619,0.566l1.097,0.075l0.81-0.459c0.328,0.196,0.657,0.394,0.952,0.588
							c0.334-0.154,0.641-0.296,0.975-0.45c0.433,0.031,0.831,0.06,1.264,0.091c0.224,0.195,0.428,0.372,0.652,0.566
							C55.133,25.469,55.021,25.922,54.912,26.377z"/>
					</g>
					<g>
						<path fill="#CEDFB3" d="M51.219,13.626c-0.501,0.079-0.305,1.654-0.997,1.315l-0.785-0.576
							c0.341-0.73,0.677-1.451,1.018-2.182L51.219,13.626z"/>
					</g>
					<g>
						<path fill="#C1D69E" d="M45.34,25.689c-0.325-0.201-0.625-0.387-0.952-0.589c-0.291,1.021-1.341,0.425-1.009,1.836
							c-0.498-0.036-1.063-0.076-1.594-0.114c-0.2-0.014-0.399-0.028-0.633-0.045c-0.197-0.472-0.4-0.958-0.597-1.432
							c-0.111,0.457-0.221,0.911-0.365,1.361l-2.692-0.192c-0.167-0.294-0.312-0.548-0.48-0.844
							c-0.372,0.263-14.096-2.164-14.468-1.904c-0.431-0.089-0.86-0.235-1.29-0.381c0.237-0.796,0.471-1.585,0.724-2.435
							c0.426,0.079,14.19,2.645,14.616,2.725c0.159,0.3,0.319,0.6,0.444,0.898c0.814-0.635,1.124-1.018,1.495-1.279
							c0.43,0.09,0.827,0.233,1.257,0.321c0.263,0.134,0.527,0.271,0.791,0.346l0.797,0.058c0.162,0.186,0.324,0.369,0.451,0.609
							l0.52-0.829c0.699,0.05,1.396,0.1,2.061,0.147c0.068-0.055,0.104-0.166,0.171-0.219c0.331,0.082,0.628,0.217,0.958,0.3
							C45.466,24.601,45.386,25.173,45.34,25.689z"/>
					</g>
					<g>
						<path fill="#CEDFB3" d="M40.84,27.333c-0.227-0.247-0.422-0.437-0.65-0.626c0.144-0.45,0.254-0.904,0.365-1.361
							c0.197,0.473,0.4,0.96,0.597,1.432C41.049,26.944,40.945,27.108,40.84,27.333z"/>
					</g>
					<g>
						<path fill="#CEDFB3" d="M19.485,25.224c-0.135,0.048-0.237,0.154-0.339,0.265c-0.43-0.146-0.825-0.291-1.256-0.38
							c-0.066-0.005-0.132-0.011-0.166-0.014c0.007-0.286,0.014-0.575,0.026-1.095c0.271-0.211,0.541-0.364,0.811-0.52
							c0.299,0.021,0.631,0.046,0.964,0.07C19.511,24.126,19.499,24.647,19.485,25.224z"/>
					</g>
					<g>
						<path fill="#CEDFB3" d="M19.839,3.343c-0.507,0.31-0.982,0.681-1.455,0.992c-0.165-0.128-0.328-0.196-0.492-0.324l0.033-1.385
							c0.507-0.312,0.981-0.682,1.455-0.993c0.165,0.068,0.329,0.195,0.492,0.322L19.839,3.343z"/>
					</g>
					<g>
						<path fill="#CEDFB3" d="M13.058,26.728c-0.367,0.032-0.769,0.119-1.136,0.149c-0.198-0.473-0.401-0.958-0.599-1.43
							c-0.403,1.59-0.896,1.266-1.163,1.303c-0.188-0.475-0.58-0.792-0.598-1.43c0.001-0.058,0.004-0.174,0.005-0.229
							c0.438-0.2,0.874-0.343,1.276-0.487l0.499,0.035c0.369-0.146,0.739-0.296,1.111-0.498c0.326,0.255,0.654,0.452,0.949,0.646
							C13.292,25.414,13.18,26.044,13.058,26.728z"/>
					</g>
					<g>
						<path fill="#CEDFB3" d="M6.137,15.364c0.224,1.808-0.558,2.446-0.426,3.9c-0.037,0.171-0.108,0.339-0.178,0.507
							c-0.033-0.002-0.1-0.006-0.166-0.011c-0.196-0.188-0.391-0.375-0.619-0.564c-1.459-0.222-0.713-2.189-0.871-3.994
							c0.311-0.44,0.554-0.885,0.831-1.328l0.466,1.421l0.797,0.057C6.004,15.354,6.071,15.359,6.137,15.364z"/>
					</g>
					<g>
						<path fill="#CEDFB3" d="M4.966,10.02c-0.269-0.298-0.51-0.566-0.778-0.863C4.27,8.524,4.09,7.644,4.866,7.238
							C5.233,8.594,5.568,9.891,4.966,10.02z"/>
					</g>
					<g>
						<path fill="#B2CD87" d="M57.626,12.988c-0.47,0.139-0.972,0.274-1.443,0.473c-0.368,0.032-0.769,0.117-1.135,0.151
							c0.019-0.809,0.039-1.616,0.059-2.482c0.333,0.024,0.631,0.045,0.962,0.069c0.03,0.175,0.092,0.353,0.154,0.59
							c0.462,0.203,0.953,0.418,1.416,0.621C57.63,12.812,57.629,12.874,57.626,12.988z"/>
					</g>
					<g>
						<path fill="#B2CD87" d="M57.202,16.829c-0.435,0.085-0.926-0.297-0.938,0.223c-0.303,0.151-0.54,0.308-0.812,0.521
							c-0.785-0.578-1.097-0.08-0.976,0.449c-0.136,0.105-0.237,0.156-0.339,0.264c-0.199-0.014-0.432-0.03-0.632-0.044
							c-0.573-1.083-1.064-1.406-1.748-0.704c0.188-1.143,0.386-2.341,0.585-3.543c0.133,0.01,0.299,0.022,0.465,0.035
							c0.697,0.05,1.396,0.1,2.061,0.147l2.359,1.556C57.22,16.078,57.21,16.482,57.202,16.829z"/>
					</g>
					<g>
						<path fill="#B2CD87" d="M50.462,11.896c-0.599-0.042-1.163-0.083-1.762-0.126c-0.019-0.637-0.069-1.277-0.121-1.918
							c0.269-0.094,0.538-0.191,0.805-0.23c0.35,0.662,0.734,1.324,1.083,2.044C50.466,11.723,50.463,11.838,50.462,11.896z"/>
					</g>
					<g>
						<path fill="#B2CD87" d="M48.409,24.002l-1.894-0.136c0.056-0.399,0.104-0.745,0.161-1.144c0.5-0.023,1.057,0.306,1.314-0.715
							c0.167,0.012,0.299,0.021,0.466,0.033C48.441,22.676,48.426,23.309,48.409,24.002z"/>
					</g>
					<g>
						<path fill="#C1D69E" d="M48.7,11.77l-1.129,1.305c-1.314-0.731-2.695-1.465-3.709,0.603c-0.007,0.289-0.013,0.52-0.02,0.808
							c-0.565-0.041-1.163-0.084-1.761-0.127c0.008-0.346,0.018-0.75,0.026-1.097c-0.086-0.354-0.186-0.762-0.272-1.117
							c0.167-0.454,0.331-0.897,0.498-1.351c-0.293-0.254-0.622-0.45-0.95-0.646c0.019-0.808,0.04-1.674,0.059-2.482
							c-0.306,0.268-0.645,0.532-0.95,0.741c-0.364-0.084-0.76-0.228-1.125-0.312c0.182-0.681,0.364-1.304,0.513-1.928
							c0.301-0.094,0.536-0.137,0.803-0.231c0.29,0.482,0.51,0.961,0.766,1.44c0.232,0.017,0.432,0.032,0.664,0.05
							c0.361,0.599,0.696,1.153,1.057,1.752c-0.007,0.286-0.014,0.577-0.02,0.808c0.992,0.301,1.783,0.647,2.56,0.183
							c0.006-0.231,0.013-0.52,0.02-0.808c0.274-0.327,0.638-0.244,1.588,0.403c0.432,0.031,0.831,0.059,1.263,0.089
							C48.631,10.492,48.682,11.133,48.7,11.77z"/>
					</g>
					<g>
						<path fill="#B2CD87" d="M45.709,10.167c-0.776,0.465-1.568,0.118-2.56-0.183c0.006-0.23,0.013-0.522,0.02-0.808
							c0.864,0.062,1.695,0.121,2.559,0.183C45.722,9.647,45.715,9.936,45.709,10.167z"/>
					</g>
					<g>
						<path fill="#B2CD87" d="M45.61,14.322c-0.117,0.742-0.394,1.186-0.831,1.327c-0.194-0.245-0.419-0.55-0.612-0.855
							c0.192,0.306,0.417,0.61,0.612,0.855C45.216,15.508,45.493,15.064,45.61,14.322z"/>
					</g>
					<g>
						<path fill="#B2CD87" d="M42.081,14.357c-0.302,0.095-0.636,0.129-0.937,0.221c-0.083-0.699-0.301-1.351,0.191-2.471
							l0.499,0.036c0.086,0.355,0.187,0.764,0.272,1.117C42.099,13.607,42.089,14.011,42.081,14.357z"/>
					</g>
					<g>
						<path fill="#90B753" d="M39.83,22.231c-0.315-0.717-0.914-0.761-1.263-0.091c-0.499-0.036-0.964-0.07-1.462-0.105
							c-0.302-0.062-13.977-2.87-14.278-2.932l-0.843,1.848c-0.224-0.194-0.428-0.372-0.652-0.566
							c-0.666,0.027-1.367,0.055-2.066,0.084c-0.459-0.266-0.958-0.302-1.423-0.334l-0.777-0.926
							c-0.497-0.091-0.593-1.658-1.722-1.797c-0.397-0.087-0.675,0.413-1.29,1.063c-0.064,1.326-0.367,1.418-1.156,1.016
							c-0.103,0.166-0.207,0.332-0.345,0.496c-0.014,0.577-0.027,1.153-0.193,2.529l-1.275-0.959
							c-0.37,0.148-0.739,0.294-1.11,0.498c-0.123-0.412-0.215-0.766-0.306-1.119c-0.327-0.257-0.622-0.45-0.95-0.646
							c0.186-0.563,0.353-1.073,0.538-1.637l1.13-1.31c0.26-1.134,1.083-2.173,0.583-3.54c0.111-0.627,0.233-1.313,0.345-1.941
							c-0.154-0.53-0.272-1.116-0.42-1.936c-0.099-0.008-0.198-0.015-0.332-0.025c-0.137-0.763-0.274-1.52-0.411-2.283
							c0.265-0.334,0.558-0.705,0.823-1.039c0.103-0.341,0.222-0.734,0.325-1.075c0.242-0.387,0.45-0.719,0.69-1.05
							c0.435-0.083,0.836-0.17,1.27-0.195c0.105-0.226,0.209-0.391,0.347-0.553l0.311-0.5c0.245,0.541,0.513,1.131,0.759,1.673
							c0.063,0.121,0.127,0.24,0.159,0.301c0.372-0.263,0.776-0.465,1.149-0.726c0.637-0.187,1.273-0.314,1.908-0.442
							c0.164,0.128,0.328,0.196,0.492,0.324c0.288,0.37,0.617,0.794,0.904,1.163c-0.14,0.278-0.327,1.19-0.817,0.809
							c-0.208,0.333-0.417,0.665-0.659,1.051c0.544,2.352,1.524,0.341,2.547,0.702c0.327,0.255,0.622,0.45,0.95,0.646
							c0.295,0.195,0.624,0.393,0.951,0.646c0.354,0.488,14.063,3.552,14.417,4.098c0.132,0.01,0.232,0.017,0.332,0.024
							c0.287,0.54,0.073,1.161,0.427,1.648c0.37-0.325,0.787-0.69,1.157-1.016c0.18,0.822,0.443,0.957,1.255,0.379
							c0.332,0.082,0.627,0.219,0.958,0.356c-0.019,0.81-0.04,1.675-0.059,2.483c-0.168,0.045-0.336,0.149-0.473,0.255l-2.394-0.172
							c-0.279,0.56-0.862-0.12-1.147,0.727c1.688,0.353,1.993,2.977,3.609,2.225c0.228,0.303,0.416,0.552,0.645,0.856
							C40.615,21.542,40.2,21.906,39.83,22.231z"/>
					</g>
					<g>
						<path fill="#B2CD87" d="M41.382,10.146c-0.439,0.258-0.657-0.395-0.891-1.741c0.305-0.209,0.644-0.474,0.95-0.741
							C41.422,8.473,41.401,9.338,41.382,10.146z"/>
					</g>
					<g>
						<path fill="#B2CD87" d="M39.367,8.094c-0.166-0.012-0.332-0.024-0.465-0.034c-0.336,0.149-0.672,0.3-0.976,0.451
							c-0.572,0.249-0.181,2.011-0.997,1.315c-0.554-0.502-14.811-2.97-14.743-4.409c-0.192-0.362-0.414-0.782-0.605-1.144
							c0.802-0.115,14.957,2.404,15.758,2.287c0.209-0.391,0.45-0.718,0.66-1.107c0.199,0.014,0.432,0.03,0.63,0.044
							c0.428,0.264,0.855,0.465,1.25,0.669C39.73,6.79,39.549,7.413,39.367,8.094z"/>
					</g>
					<g>
						<path fill="#B2CD87" d="M38.539,23.295c-0.372,0.262-0.681,0.645-1.495,1.279c-0.125-0.299-0.285-0.599-0.444-0.898
							c0.178-0.507,0.359-1.072,0.505-1.641c0.498,0.036,0.964,0.069,1.462,0.105C38.557,22.542,38.549,22.891,38.539,23.295z"/>
					</g>
					<g>
						<path fill="#B2CD87" d="M21.983,20.951c-0.253,0.85-0.487,1.638-0.724,2.435c-0.567,0.073-1.168,0.147-1.734,0.165
							c-0.333-0.024-0.665-0.049-0.964-0.07l0.033-1.386c0.212-0.504,0.458-1.065,0.671-1.626c0.699-0.029,1.401-0.057,2.066-0.084
							C21.555,20.579,21.76,20.757,21.983,20.951z"/>
					</g>
					<g>
						<path fill="#B2CD87" d="M14.835,5.179c-0.032-0.061-0.096-0.18-0.159-0.301c-0.348-0.381-0.724-0.792-1.07-1.173l0.311-0.5
							c0.335-0.092,0.637-0.186,0.97-0.219c0.099,0.065,0.195,0.188,0.325,0.313C15.064,3.925,14.95,4.552,14.835,5.179z"/>
					</g>
					<g>
						<path fill="#B2CD87" d="M14.201,24.843l-0.798-0.057c-0.294-0.193-0.623-0.391-0.949-0.646
							c0.008-0.347,0.017-0.75,0.025-1.098c0.501-0.077,0.717-0.758,1.142-0.436c0.57-0.133,0.107,1.104,0.599,1.43
							C14.215,24.268,14.208,24.555,14.201,24.843z"/>
					</g>
					<g>
						<path fill="#A2C26F" d="M11.299,5.503c-0.104,0.341-0.222,0.734-0.325,1.075c-0.265,0.334-0.559,0.705-0.823,1.039
							c0.137,0.763,0.274,1.521,0.411,2.283c0.134,0.01,0.232,0.018,0.332,0.025c0.148,0.819,0.267,1.405,0.42,1.936
							c-0.112,0.629-0.234,1.314-0.345,1.941c0.5,1.367-0.324,2.406-0.583,3.54l-1.13,1.31c-0.131-1.456-0.393-1.707-0.28-2.218
							c0.103-0.108,0.205-0.216,0.34-0.265c1.176-0.493,0.769-1.563,1.315-2.103c-0.359-0.313-0.719-0.628-1.109-0.946
							c-0.126-0.299-0.287-0.541-0.446-0.841l0.021-0.867c0.443-0.43,0.886-0.86,1.295-1.292c-0.399-0.029-0.831-0.06-1.263-0.092
							c-0.018-0.638-0.069-1.275-0.12-1.916c-0.292-0.31-0.619-0.621-0.944-0.936C7.499,7.138,6.9,7.095,6.335,7.055
							c-0.127-0.24-0.22-0.535-0.313-0.831c0.442-1.819,1.365-1.406,2.592-1.202C8.882,4.926,9.149,4.887,9.418,4.79
							c0.292,0.367,0.613,0.796,0.939,1.165c0.102-0.339,0.221-0.734,0.324-1.073c-0.027-0.291-0.088-0.528-0.147-0.822
							c0.498,0.097,0.96,0.243,1.456,0.394C11.749,4.784,11.541,5.116,11.299,5.503z"/>
					</g>
					<g>
						<path fill="#B2CD87" d="M9.314,16.17c-0.135,0.049-0.237,0.156-0.34,0.265l-0.798-0.058c0.079-0.861,0.152-1.665,0.226-2.469
							c0.344-0.496,0.17-1.549,0.671-1.628c0.159,0.3,0.32,0.542,0.446,0.841c0.391,0.318,0.75,0.633,1.109,0.946
							C10.083,14.607,10.491,15.677,9.314,16.17z"/>
					</g>
					<g>
						<path fill="#B2CD87" d="M10.357,5.955C10.031,5.586,9.709,5.157,9.418,4.79c0.381-0.249,0.734-0.48,1.116-0.73
							c0.059,0.294,0.121,0.531,0.147,0.822C10.578,5.221,10.459,5.616,10.357,5.955z"/>
					</g>
					<g>
						<path fill="#B2CD87" d="M10.39,10.121c-0.41,0.432-0.853,0.862-1.295,1.292C9,11.177,8.907,10.882,8.781,10.583
							c-0.936-1.224-1.183,0.781-1.907,0.44c-0.111,0.455-0.221,0.852-0.365,1.362c-0.534,0.02-1.068,0.097-1.601,0.115
							c0.082-0.628,0.163-1.259,0.211-1.893c0.439-0.257,0.878-0.515,1.283-0.773C6.38,8.909,6.357,7.979,6.335,7.055
							C6.9,7.095,7.499,7.138,8.063,7.178c0.325,0.314,0.651,0.626,0.944,0.936c0.051,0.641,0.102,1.278,0.12,1.916
							C9.559,10.061,9.991,10.092,10.39,10.121z"/>
					</g>
					<g>
						<path fill="#B2CD87" d="M7.163,25.438c0.093,0.296,0.186,0.591,0.312,0.889c-0.001,0.059-0.004,0.173-0.005,0.23
							c-0.504,0.197-0.973,0.336-1.477,0.473c-0.261-0.191-0.49-0.381-0.784-0.634c-0.032-0.06-0.095-0.179-0.127-0.239
							c0.127-1.033,0.253-2.063,0.372-3.038c0.231,0.075,0.427,0.204,0.625,0.335c0.61-0.478,1.218-0.838,1.793-1.26
							C7.636,23.274,7.398,24.358,7.163,25.438z"/>
					</g>
					<g>
						<path fill="#C1D69E" d="M9.255,18.652c-0.185,0.563-0.353,1.073-0.538,1.637c-0.167,0.046-0.304,0.151-0.472,0.254
							c-0.061,0.174-0.119,0.338-0.178,0.509c-0.043,0.401-0.118,0.742-0.194,1.142c-0.575,0.422-1.184,0.782-1.793,1.26
							c-0.198-0.131-0.394-0.26-0.625-0.335c-0.007-1.099-0.047-2.258-0.086-3.357c0.066,0.004,0.133,0.009,0.166,0.011
							c0.07-0.168,0.141-0.336,0.178-0.507c-0.131-1.454,0.65-2.093,0.426-3.9c-0.066-0.005-0.133-0.01-0.166-0.013l-0.797-0.057
							l-0.466-1.421c0.078-0.457,0.155-0.913,0.199-1.373c0.533-0.019,1.067-0.096,1.601-0.115c0.145-0.511,0.254-0.907,0.365-1.362
							c0.724,0.341,0.971-1.664,1.907-0.44c0.126,0.299,0.219,0.594,0.313,0.83L9.074,12.28c-0.501,0.079-0.327,1.132-0.671,1.628
							c-0.073,0.804-0.147,1.607-0.226,2.469l0.798,0.058C8.862,16.945,9.124,17.196,9.255,18.652z"/>
					</g>
					<g>
						<path fill="#B2CD87" d="M6.661,12.916c0.2,1.459,0.084,2.088-0.523,2.448c-0.066-0.005-0.133-0.01-0.166-0.013
							c0.012-0.519,0.026-1.095,0.038-1.615C6.216,13.463,6.396,12.896,6.661,12.916z"/>
					</g>
					<g>
						<path fill="#C1D69E" d="M94.87,32.883c-0.636,0.125-1.303,0.255-1.939,0.38c-0.269,0.098-0.536,0.136-0.804,0.233l-0.3-0.021
							c-0.434-1.361-1.281-0.729-1.908-0.946c-0.189-0.419-0.414-0.782-0.604-1.199c1.063,0.076,2.127,0.152,3.203-0.292
							c0.565,0.041,1.164,0.084,1.761,0.127c0.192,0.36,0.382,0.78,0.605,1.143C94.879,32.479,94.875,32.652,94.87,32.883z"/>
					</g>
					<g>
						<path fill="#C1D69E" d="M89.085,19.982c-0.432-0.031-0.831-0.059-1.263-0.09c0.009-0.403,0.017-0.752,0.026-1.154
							c-0.155-0.474-0.31-0.947-0.432-1.418c0.036-0.057,0.104-0.166,0.139-0.222c0.022,0.464,0.527,0.21,1.277,0.9
							c0.098,0.065,0.194,0.188,0.292,0.31C89.113,18.829,89.099,19.406,89.085,19.982z"/>
					</g>
					<g>
						<path fill="#C1D69E" d="M87.713,31.502c-0.333-0.023-0.632-0.044-0.964-0.068C87.081,31.458,87.38,31.479,87.713,31.502z"/>
					</g>
					<g>
						<path fill="#C1D69E" d="M80.318,19.064c-0.296-0.138-0.626-0.275-0.923-0.355c-0.125-0.355-0.215-0.765-0.306-1.118
							c0.043-0.461,0.121-0.918,0.199-1.374c0.355-0.957,0.934-0.107,1.135-1.596c0.437-0.142,1.052,0.539,1.316-0.716
							c0.098,0.066,0.194,0.188,0.293,0.253c0.123,0.414,0.215,0.769,0.305,1.18c-0.308,1.713,0.821,1.85,0.885,3.358
							c-0.207,0.274-0.351,0.726-0.646,0.53C81.814,19.172,81.083,19.12,80.318,19.064z"/>
					</g>
					<g>
						<path fill="#C1D69E" d="M77.413,13.828c-0.199-0.014-0.432-0.031-0.631-0.046c-0.179-0.821-0.393-1.646-0.572-2.525
							c0.237-0.157,0.473-0.313,0.804-0.232c0.2,0.299,0.411,0.613,0.611,0.911L77.413,13.828z"/>
					</g>
					<g>
						<path fill="#C1D69E" d="M74.708,14.209c-0.391-0.371-0.513,0.602-0.811,0.522c-0.322-0.427-0.646-0.798-0.936-1.222
							c-0.326-0.202-0.625-0.388-0.952-0.59c-0.26-0.25-0.522-0.441-0.783-0.635c-0.148-0.762-0.298-1.465-0.413-2.226
							c0.486-0.832,1.583-0.753,2.053,0.437c0.631,0.103,1.259,0.265,1.923,0.369c0.293,0.252,0.622,0.449,0.916,0.644
							c-0.018,0.751-0.034,1.442-0.051,2.192c0.163,0.128,0.326,0.254,0.491,0.324c-0.637,0.184-0.107,1.727-0.831,1.328
							C75.089,14.99,74.899,14.572,74.708,14.209z"/>
					</g>
					<g>
						<path fill="#C1D69E" d="M60.764,15.408c-0.061-0.235-0.087-0.525-0.146-0.817c-0.529-0.155-1.06-0.25-1.588-0.405
							c-0.037,0.114-0.105,0.167-0.173,0.276c-0.415-0.497-0.815-0.977-1.23-1.474c0.003-0.115,0.004-0.176,0.013-0.578
							c0.108-0.34,0.217-0.734,0.359-1.072l1.097,0.079c0.365,0.026,0.763,0.054,1.129,0.08c0.248,0.371,0.523,0.782,0.772,1.153
							c-0.01,0.405-0.019,0.75-0.028,1.154c0.569-0.132,1.061,0.192,1.41,0.911L62.346,16.1
							C61.818,15.889,61.29,15.678,60.764,15.408z"/>
					</g>
					<g>
						<path fill="#C1D69E" d="M61.764,26.578c-0.462-0.203-0.925-0.406-1.416-0.621c0.065,0.005,0.099,0.007,0.166,0.012
							c0.331,0.082,0.42-0.895,1.27-0.197C61.776,26.059,61.769,26.348,61.764,26.578z"/>
					</g>
					<g>
						<path fill="#C1D69E" d="M55.048,13.612c-0.039,0.229-0.11,0.396-0.18,0.564c-0.665-0.048-1.364-0.098-2.061-0.147
							c-0.166-0.013-0.332-0.025-0.465-0.035c-0.396-0.143-0.761-0.228-1.124-0.368l-0.764-1.442
							c0.001-0.058,0.004-0.173,0.007-0.288c0.001-0.058,0.004-0.172,0.005-0.23c0.344-0.496,0.653-0.879,0.996-1.316
							c0.426,0.261,0.819,0.578,1.244,0.896c0.063,0.181,0.091,0.354,0.152,0.591c0.708-0.354,1.413-0.65,2.088-1.007
							c0.064,0.121,0.127,0.24,0.159,0.301C55.087,11.997,55.067,12.803,55.048,13.612z"/>
					</g>
					<g>
						<path fill="#C1D69E" d="M19.288,5.498c-0.287-0.369-0.616-0.793-0.904-1.163c0.473-0.312,0.948-0.683,1.455-0.992
							c0.029,0.174,0.091,0.351,0.153,0.53C19.624,4.02,19.731,5.067,19.288,5.498z"/>
					</g>
					<g>
						<path fill="#C1D69E" d="M17.892,4.011c-0.634,0.128-1.271,0.256-1.908,0.442c-0.223-0.423-0.414-0.782-0.639-1.146
							l2.414-0.694c0.067,0.005,0.134,0.01,0.167,0.013L17.892,4.011z"/>
					</g>
					<g>
						<path fill="#C1D69E" d="M15.969,24.682c-0.203,0.102-0.437,0.143-0.638,0.244c-0.366-0.027-0.765-0.056-1.13-0.083
							c0.007-0.288,0.014-0.575,0.019-0.806c0.59,0.39,0.386-0.84,0.824-1.098c0.363,0.31,0.748,0.638,1.11,0.947
							C16.088,24.172,16.036,24.397,15.969,24.682z"/>
					</g>
					<g>
						<path fill="#C1D69E" d="M6.402,9.835c-0.405,0.259-0.844,0.517-1.283,0.773c-0.028-0.231-0.09-0.41-0.153-0.589
							c0.603-0.129,0.267-1.426-0.1-2.781c0.407-0.316,0.782-0.695,1.156-1.015C6.115,6.52,6.208,6.814,6.335,7.055
							C6.357,7.979,6.38,8.909,6.402,9.835z"/>
					</g>
					<g>
						<path fill="#A2C26F" d="M97.383,28.033c-1.263-0.089-2.353,2.318-3.025-0.216c-0.476,0.428-1.138-1.121-1.322,1.004
							c-0.035,0.112-0.104,0.224-0.172,0.276c-0.27-0.299-0.51-0.567-0.778-0.865c-0.023-0.406-0.082-0.757-0.107-1.105
							c-0.066-0.006-0.133-0.011-0.167-0.014c-0.329-0.137-0.418,0.84-1.296-0.092c-0.096-0.122-0.192-0.245-0.291-0.311
							c-0.371,0.326-0.786,0.691-1.156,1.016c-0.322-0.427-0.505-1.134-0.944-0.876c-0.364-0.144-0.727-0.283-1.09-0.368
							c-0.373,0.263-0.777,0.466-1.149,0.727c-0.399-0.029-0.834,0.054-0.785-0.574c-0.263-0.136-0.527-0.271-0.791-0.346
							c-0.151-0.305-0.295-0.596-0.446-0.9l-0.818,0.808l-1.296-0.093c-0.19-0.418-0.414-0.779-0.605-1.142
							c-0.307,0.325-0.648,0.647-0.99,1.027c-0.437,0.144-0.592-0.332-0.784-0.634c-0.297-0.08-0.626-0.217-0.923-0.355
							c-0.873,0.284-1.382-0.678-2.255-0.393c-0.428-0.146-0.824-0.291-1.255-0.38c-0.214-0.823-0.621-0.505-0.964-0.069
							c-0.731-0.052-1.495-0.106-2.227-0.158c-0.19-0.419-0.415-0.781-0.605-1.143c0.504-1.582,1.385-0.825,2.088-1.006
							c0.333-0.034,0.635-0.128,0.968-0.162c0.365,0.084,0.727,0.227,1.125,0.313c0.487,0.497,0.617-0.766,1.275-0.429
							c0.006-0.231,0.01-0.403,0.014-0.577c0.395,0.202,0.745-1.912,1.256,0.379c-0.271,0.154-0.54,0.308-0.811,0.52
							c0.41,0.558,0.848,1.153,1.257,1.709l1.607-0.405c-0.146-0.648-0.305-1.35-0.451-1.998c0.134-0.048,0.235-0.157,0.339-0.265
							c0.263,0.137,0.525,0.27,0.791,0.346c0.594,0.217,1.154,0.43,1.748,0.703c0.029,0.177,0.092,0.354,0.154,0.532l1.096,0.078
							l0.012-0.519c0.441-0.315,0.805-0.233,1.589,0.402c0.769-0.119,1.18-0.609,2.133-1.523c0.289,0.371,0.617,0.793,0.904,1.163
							c0.153,0.589,0.313,0.832,0.473,1.133l0.797,0.057c0.097,0.181,0.192,0.36,0.286,0.598c0.365,0.026,0.764,0.055,1.129,0.081
							c0.519,0.559,1.038,1.174,1.556,1.789c0.833-0.057,1.791,0.301,2.566-0.105c0.441,1.015,1.521,0.398,2.359,1.557
							C97.395,27.515,97.39,27.746,97.383,28.033z"/>
					</g>
					<g>
						<path fill="#90B753" d="M76.597,21.573c-0.658-0.337-0.788,0.926-1.275,0.429c-0.398-0.086-0.76-0.229-1.125-0.313
							c-0.333,0.034-0.635,0.128-0.968,0.162c-0.703,0.181-1.584-0.576-2.088,1.006l-0.511,0.484
							c-0.298-0.08-0.627-0.22-0.924-0.356c0.001-0.059,0.004-0.173,0.005-0.229c-0.229-0.134-0.427-0.264-0.657-0.339
							c-0.202-0.584-0.391-1.132-0.592-1.718c-0.756,1.045-1.854,0.966-1.895-0.136c-0.239,0.273-0.445,0.545-0.684,0.76
							c-0.301,0.094-0.636,0.187-0.937,0.222c-0.132-0.066-0.228-0.188-0.326-0.312c-0.089-0.47-0.178-0.938-0.3-1.408l0.013-0.52
							c-0.089-0.583-0.17-1.111-0.26-1.697c0.269-0.095,0.536-0.133,0.805-0.231c0.428,0.206,0.823,0.407,1.249,0.671
							c0.221,0.477,0.628,0.218,0.958,0.355c0.363,0.196,0.727,0.392,1.118,0.603c0.096,0.12,0.194,0.186,0.292,0.309
							c0.199,0.015,0.432,0.031,0.631,0.045c0.369-0.089,0.77-0.118,1.137-0.207c0.106-0.282,0.212-0.505,0.352-0.784
							c0.377,0.952,1.497,0.049,1.389,1.775l1.096,0.079c0.365,0.085,0.761,0.229,1.125,0.312c0.595,0.158,1.478,0.857,2.385,0.461
							C76.606,21.17,76.603,21.342,76.597,21.573z"/>
					</g>
					<g>
						<path fill="#A2C26F" d="M68.41,22.893l-1.895-0.135c-0.225-0.363-0.414-0.781-0.639-1.145
							c-0.104,0.342-0.222,0.734-0.326,1.075c-0.132-0.01-0.232-0.017-0.332-0.024c-0.086-0.354-0.186-0.762-0.273-1.118
							c0.3-0.035,0.636-0.128,0.937-0.222c0.239-0.215,0.445-0.486,0.684-0.76c0.041,1.102,1.138,1.181,1.895,0.136
							c0.202,0.585,0.391,1.133,0.592,1.718C68.845,22.572,68.617,22.739,68.41,22.893z"/>
					</g>
					<g>
						<path fill="#A2C26F" d="M36.6,23.676c-0.426-0.08-14.19-2.646-14.616-2.725c-0.224-0.194-0.428-0.372-0.652-0.566
							c0.4-1.416,1.051-0.792,1.495-1.281c0.302,0.062,13.977,2.87,14.278,2.932C36.958,22.604,36.778,23.169,36.6,23.676z"/>
					</g>
					<g>
						<path fill="#A2C26F" d="M14.835,5.179c-0.032-0.061-0.096-0.18-0.159-0.301c0.173-0.509,0.363-1.069,0.536-1.578
							c0.033,0.002,0.1,0.006,0.133,0.008c0.226,0.363,0.417,0.723,0.639,1.146C15.612,4.714,15.208,4.916,14.835,5.179z"/>
					</g>
					<g>
						<path fill="#90B753" d="M87.04,26.193c-0.262-0.191-0.523-0.383-0.784-0.633c-0.736,0.178-1.159-0.258-1.263-1.478
							c0.07-0.17,0.142-0.337,0.178-0.509c0.889,0.411,1.777,0.879,2.7,1.292L87.04,26.193z"/>
					</g>
					<g>
						<path fill="#90B753" d="M78.313,23.604c-0.409-0.556-0.847-1.151-1.257-1.709c0.271-0.212,0.54-0.365,0.811-0.52
							c0.434-0.084,0.868-0.112,1.303-0.195l0.3,0.021c0.146,0.648,0.305,1.35,0.451,1.998L78.313,23.604z"/>
					</g>
					<g>
						<path fill="#90B753" d="M55.427,18.667c-0.067,0.054-0.137,0.164-0.173,0.277l-0.777-0.923
							c-0.121-0.529,0.191-1.027,0.976-0.449C55.445,17.917,55.437,18.263,55.427,18.667z"/>
					</g>
					<g>
						<path fill="#90B753" d="M42.394,22.184c-0.161-0.243-0.322-0.427-0.485-0.613c0.266-1.368,0.974-0.334,1.322-1.003
							c0.087,0.356,0.187,0.763,0.273,1.118C43.134,21.832,42.765,21.979,42.394,22.184z"/>
					</g>
					<g>
						<path fill="#DCE8C9" d="M87.022,33.939c-0.333-0.024-0.665-0.048-0.963-0.07c0.001-0.057,0.003-0.173,0.004-0.23
							C86.297,33.598,86.227,32.378,87.022,33.939z"/>
					</g>
					<g>
						<path fill="#DCE8C9" d="M87.155,33.948c-0.033-0.002-0.1-0.006-0.133-0.009C87.055,33.942,87.122,33.946,87.155,33.948z"/>
					</g>
					<g>
						<path fill="#EAF1DE" d="M42.229,29.108c-0.591,1.056-1.73-0.009-2.246,0.649c-0.145,0.508-0.437,0.142-1.116-0.66
							c-0.738,0.236-1.358,1.118-2.247,0.707c-0.257-0.422-13.427-3.738-13.952-4.064c0.438-0.199,14.194,2.289,14.63,2.146
							c0.528,0.212,1.055,0.422,1.581,0.691c0.636-0.186,1.273-0.313,1.941-0.438c0.299,0.022,0.631,0.045,0.931,0.067
							L42.229,29.108z"/>
					</g>
					<g>
						<path fill="#C1D69E" d="M67.672,27.291l-0.187,0.854l-1.097-0.078c-0.432-0.031-0.864-0.063-1.582-0.691
							c0.431,0.088,0.253-0.847,0.657-1.051c0.295,0.193,0.623,0.392,0.952,0.588C66.813,27.057,67.241,27.201,67.672,27.291z"/>
					</g>
					<g>
						<path fill="#C1D69E" d="M62.684,8.898c-0.065-0.063-0.128-0.181-0.16-0.301C62.555,8.718,62.619,8.836,62.684,8.898z"/>
					</g>
					<g>
						<path fill="#C1D69E" d="M60.348,25.957c-0.208,0.153-0.436,0.321-0.645,0.474c-0.362-0.195-0.753-0.405-1.117-0.602
							C58.899,25.273,59.419,24.388,60.348,25.957z"/>
					</g>
				</g>
			</g>
		</g>
	</g>
</g>
</svg>
