<?xml version="1.0" encoding="utf-8"?>
<!-- Generator: Adobe Illustrator 16.0.0, SVG Export Plug-In . SVG Version: 6.00 Build 0)  -->
<!DOCTYPE svg PUBLIC "-//W3C//DTD SVG 1.1//EN" "http://www.w3.org/Graphics/SVG/1.1/DTD/svg11.dtd">
<svg version="1.1" id="レイヤー_1" xmlns="http://www.w3.org/2000/svg" xmlns:xlink="http://www.w3.org/1999/xlink" x="0px"
	 y="0px" width="493.074px" height="182.99px" viewBox="0 0 493.074 182.99" enable-background="new 0 0 493.074 182.99"
	 xml:space="preserve">
<g>
	<g enable-background="new    ">
		<path fill="#FFFFFF" d="M195.103,129.288c0-1.286-0.429-1.417-1.056-1.417h-2.44c-0.726,0-1.682,0-1.682-1.023
			c0-1.021,0.923-1.021,1.682-1.021h3.958c0.264,0,1.714,0.329,1.714,2.407v7.849c0,0.891,0.825,2.474,2.639,3.199
			c1.121,0.462,2.276,0.561,4.056,0.561h14.115c0.759,0,1.715,0,1.715,1.022c0,1.056-0.923,1.056-1.715,1.056h-14.741
			c-1.649,0-5.079-0.165-7.222-3.298c-1.188,1.055-4.32,3.528-5.409,3.528c-0.692,0-1.022-0.562-1.022-1.022
			c0-0.593,0.197-0.726,2.011-1.88c0.495-0.33,1.88-1.253,3.463-2.804c-0.033-0.197-0.065-0.263-0.065-0.428V129.288z
			 M196.85,119.098c0,0.495-0.396,1.089-1.122,1.089c-0.561,0-0.692-0.165-1.748-1.615c-0.924-1.221-1.913-2.342-2.935-3.431
			c-0.561-0.594-0.792-0.89-0.792-1.286c0-0.791,0.792-1.221,1.352-1.055C192.398,113.064,196.85,118.043,196.85,119.098z
			 M214.527,119.626c2.803,0,2.803,1.979,2.803,2.243v7.684c0,0.297,0,2.242-2.803,2.242h-4.749v2.045h8.212
			c0.726,0,1.649,0,1.649,0.989s-0.891,0.989-1.649,0.989h-8.212v1.682c0,0.792,0,1.781-1.088,1.781
			c-1.089,0-1.089-0.989-1.089-1.781v-1.682h-7.519c-0.726,0-1.649,0-1.649-0.956c0-1.022,0.891-1.022,1.649-1.022h7.519v-2.045
			h-4.848c-2.803,0-2.803-2.012-2.803-2.242v-7.684c0-0.199,0.033-1.221,0.957-1.848c0.626-0.429,1.187-0.396,1.846-0.396h4.848
			v-1.979h-7.354c-0.792,0-1.781,0-1.781-1.056c0-1.055,0.989-1.055,1.781-1.055h7.354v-1.418c0-0.792,0-1.781,1.089-1.781
			c1.088,0,1.088,0.956,1.088,1.781v1.418h7.552c0.792,0,1.781,0,1.781,1.055c0,1.056-0.989,1.056-1.781,1.056h-7.552v1.979H214.527
			z M207.601,124.672v-3.133h-4.188c-0.561,0-1.319,0.164-1.319,1.022v2.11H207.601z M202.094,126.651v2.177
			c0,0.857,0.759,1.022,1.319,1.022h4.188v-3.199H202.094z M215.285,124.672v-2.11c0-0.858-0.758-1.022-1.319-1.022h-4.188v3.133
			H215.285z M209.778,126.651v3.199h4.188c0.561,0,1.319-0.165,1.319-1.022v-2.177H209.778z"/>
		<path fill="#FFFFFF" d="M250.205,119.461c0.627,0,1.419,0,1.419,0.824c0,0.858-0.759,0.858-1.419,0.858h-5.178v2.012h5.146
			c0.659,0,1.451,0,1.451,0.856c0,0.891-0.792,0.891-1.451,0.891h-5.146v2.045h6.069c0.726,0,1.614,0,1.614,0.956
			c0,0.99-0.856,0.99-1.614,0.99H238.07c-3.001,0-3.067-1.122-3.067-2.837v-5.936c-1.451,1.615-1.616,1.813-2.143,1.813
			c-0.099,0-0.759,0-0.99-0.824c-0.198,0.033-0.264,0.033-0.824,0.033h-1.55v5.639c0.429-0.198,1.155-0.561,2.309-1.153
			c0.297-0.133,0.561-0.265,0.857-0.265c0.561,0,1.088,0.462,1.088,1.089c0,0.329-0.099,0.561-0.396,0.791
			c-0.561,0.429-2.704,1.45-3.859,1.945v10.158c0,1.385,0,3.066-2.638,3.066c-1.418,0-3.166-0.593-3.562-0.759
			c-0.33-0.165-0.66-0.461-0.66-0.956c0-0.462,0.363-1.022,1.022-1.022c0.429,0,2.309,0.594,2.704,0.594
			c0.759,0,0.923-0.23,0.923-1.254v-8.903c-0.989,0.429-3.627,1.451-4.32,1.451c-0.561,0-1.022-0.495-1.022-1.056
			c0-0.659,0.461-0.956,0.989-1.154c0.692-0.264,3.759-1.385,4.353-1.615v-6.596h-2.737c-0.726,0-1.649,0-1.649-0.957
			c0-0.989,0.89-0.989,1.649-0.989h2.737v-5.046c0-0.824,0-1.847,1.089-1.847c1.121,0,1.121,0.989,1.121,1.847v5.046h1.55
			c0.957,0,1.253,0,1.55,0.527c1.385-1.583,2.935-3.331,4.122-5.705c1.022-2.078,1.154-2.309,1.748-2.309
			c0.561,0,0.989,0.495,0.989,0.891c0,0.659-0.956,2.44-1.253,2.936h4.848c0.165-0.396,0.792-2.276,0.923-2.639
			c0.166-0.429,0.363-0.989,1.088-0.989c0.495,0,1.056,0.396,1.056,0.989c0,0.23-0.626,2.275-0.759,2.639h5.31
			c0.726,0,1.649,0,1.649,1.021c0,0.99-0.892,0.99-1.649,0.99h-5.64v1.912H250.205z M234.673,132.719c-0.726,0-1.616,0-1.616-0.957
			c0-0.988,0.89-0.988,1.616-0.988h10.553c0.561,0,2.144,0,2.144,1.418c0,0.362-0.131,0.89-0.23,1.154
			c-0.065,0.164-0.264,0.791-0.264,0.923c0,0.33,0.329,0.33,0.824,0.33h2.111c1.417,0,2.308,0.197,2.308,1.747
			c0,0.825-0.197,2.276-0.627,3.464c-0.593,1.714-1.483,2.671-4.616,2.671c-2.342,0-4.815-0.759-5.178-0.924
			c-0.33-0.132-0.626-0.461-0.626-0.923c0-0.396,0.231-0.957,0.923-0.957c0.165,0,0.33,0,1.055,0.198
			c0.825,0.23,2.309,0.594,3.661,0.594c0.956,0,3.231,0,3.231-3.166c0-0.363-0.032-0.659-0.659-0.659h-2.902
			c-0.528,0-1.979,0-1.979-1.319c0-0.363,0.561-1.945,0.561-2.276c0-0.329-0.198-0.329-0.726-0.329h-3.991
			c-0.66,3.892-1.979,7.223-6.827,9.695c-0.659,0.33-0.989,0.396-1.253,0.396c-0.594,0-1.088-0.362-1.088-0.988
			c0-0.66,0.297-0.825,1.583-1.485c3.76-1.945,5.013-4.616,5.409-7.617H234.673z M242.885,119.461v-1.912H238.3
			c-0.626,0-1.088,0.099-1.088,1.154v0.758H242.885z M242.885,123.156v-2.012h-5.672v2.012H242.885z M237.212,124.903v0.858
			c0,0.923,0.066,1.187,1.121,1.187h4.551v-2.045H237.212z"/>
		<path fill="#FFFFFF" d="M265.009,117.78c-1.22,0.165-7.485,1.22-7.684,1.22c-0.791,0-1.286-0.659-1.286-1.286
			c0-1.154,1.056-1.286,1.418-1.352c10.686-1.451,21.667-1.715,22.36-1.715c2.341,0,3.264,0.099,3.264,1.286
			c0,1.22-0.691,1.253-2.604,1.319c-3.001,0.066-6.464,1.22-8.706,2.968c-2.968,2.342-4.684,5.771-4.684,8.938
			c0,0.527,0,5.475,3.892,7.65c2.275,1.286,3.496,1.385,5.705,1.583c0.66,0.066,1.221,0.527,1.221,1.253
			c0,0.561-0.264,1.286-1.419,1.286c-0.396,0-11.674-0.659-11.674-11.608c0-4.518,2.507-7.651,3.793-9.003
			c1.418-1.483,2.968-2.341,4.814-3.232C271.375,117.153,268.539,117.285,265.009,117.78z M277.476,120.682
			c0-0.231,0.197-0.561,0.594-0.561c0.759,0,3.198,4.121,3.198,5.243c0,0.527-0.428,0.857-0.857,0.857
			c-0.494,0-0.726-0.297-0.856-0.659c-0.66-1.847-1.089-3.034-1.716-4.09C277.509,120.912,277.476,120.846,277.476,120.682z
			 M279.948,119.791c0-0.264,0.198-0.627,0.627-0.627c0.759,0,3.463,4.188,3.463,5.211c0,0.461-0.396,0.857-0.858,0.857
			c-0.626,0-0.824-0.495-0.955-0.857c-0.462-1.188-0.758-2.078-1.55-3.331C280.575,120.879,279.948,119.891,279.948,119.791z"/>
		<path fill="#FFFFFF" d="M287.399,136.577c0.923-1.847,1.088-2.374,1.747-4.386c0.133-0.396,0.331-1.023,1.057-1.023
			c0.461,0,1.088,0.331,1.088,1.056c0,0.792-1.221,3.826-2.11,5.54c-0.627,1.253-1.683,3.299-2.572,3.299
			c-0.528,0-1.056-0.396-1.056-1.056C285.552,139.71,287.134,137.138,287.399,136.577z M293.863,115.57v-1.517
			c0-0.825,0-1.78,1.088-1.78c1.056,0,1.056,0.988,1.056,1.78v1.517h5.44c0.792,0,1.749,0.033,1.749,1.089
			c0,1.021-0.99,1.021-1.749,1.021h-13.686c-0.791,0-1.78,0-1.78-1.055c0-1.022,0.989-1.056,1.78-1.056H293.863z M295.94,140.336
			c0,0.76,0,2.145-2.21,2.145c-0.856,0-3.1-0.396-3.759-0.692c-0.727-0.298-0.759-0.892-0.759-1.056c0-0.396,0.33-0.923,0.99-0.923
			c0.494,0,2.506,0.56,2.935,0.56c0.527,0,0.726-0.264,0.726-0.659v-9.234h-4.023c-1.056,0-1.979-0.856-1.979-2.242v-5.606
			c0-1.352,0.924-2.243,1.979-2.243h10.19c1.022,0,1.945,0.892,1.945,2.243v5.606c0,1.353-0.923,2.242-1.945,2.242h-4.09V140.336z
			 M290.894,122.495c-0.297,0-1.022,0.198-1.022,1.088v3.661c0,0.627,0.43,1.089,1.022,1.089h7.882c0.298,0,1.022-0.198,1.022-1.089
			v-3.661c0-0.627-0.428-1.088-1.022-1.088H290.894z M300.656,138.951c-1.254,0-3.134-6.166-3.134-6.858
			c0-0.528,0.495-0.892,1.023-0.892c0.527,0,0.561,0.099,0.955,1.518c0.363,1.319,1.089,3.001,1.649,4.023
			c0.231,0.396,0.594,1.021,0.561,1.253C301.646,138.589,301.118,138.951,300.656,138.951z M309.032,122.99
			c0,0.495-0.032,1.748-0.099,2.539c0.099-0.065,0.264-0.131,0.494-0.131c1.088,0,1.088,0.956,1.088,1.78v11.608
			c0,0.99,0.825,1.089,0.99,1.089h1.088c0.924,0,1.649-0.429,1.715-3.397c0.033-1.945,0.033-2.671,1.023-2.671
			c1.088,0,1.088,1.121,1.088,1.616c0,6.497-1.551,6.497-3.299,6.497h-2.011c-0.133,0-2.737,0-2.737-2.177v-10.355
			c-1.254,6.232-4.519,10.454-5.277,11.41c-1.682,2.144-2.044,2.144-2.407,2.144c-0.561,0-1.056-0.494-1.056-0.956
			c0-0.363,0.462-0.89,1.319-1.945c5.97-7.223,5.97-14.279,5.97-16.983v-1.518h-2.704c-0.792,0-1.781,0-1.781-1.056
			c0-1.055,0.956-1.055,1.781-1.055h2.704v-5.31c0-0.792,0-1.781,1.055-1.781c1.056,0,1.056,0.956,1.056,1.748v5.343h5.408
			c0.792,0,1.78,0,1.78,1.055c0,1.056-0.988,1.056-1.78,1.056h-5.408V122.99z M314.21,118.999c-0.627,0-0.692-0.164-1.451-1.648
			c-0.527-0.989-1.253-2.177-1.979-3.364c-0.231-0.362-0.396-0.626-0.396-0.989c0-0.494,0.429-0.989,1.055-0.989
			c0.429,0,0.824,0.231,1.583,1.484c2.045,3.43,2.243,3.826,2.243,4.551C315.266,118.372,314.935,118.999,314.21,118.999z"/>
		<path fill="#FFFFFF" d="M342.865,127.113c3.231,0,3.529,1.188,3.529,4.254c0,1.78-0.231,4.914-0.759,7.124
			c-0.626,2.605-1.484,3.858-4.519,3.858c-2.474,0-5.177-1.056-6.167-1.616c-0.362-0.23-0.659-0.495-0.659-1.022
			c0-0.627,0.528-1.088,1.056-1.088c0.23,0,0.428,0.033,1.517,0.494c2.177,0.956,3.529,1.056,4.023,1.056
			c1.22,0,3.165,0,3.165-8.112c0-2.474-0.065-2.837-1.252-2.837h-9.564c-2.275,11.213-11.904,13.39-12.466,13.39
			c-0.561,0-0.956-0.462-0.956-0.99c0-0.659,0.527-0.856,1.154-1.12c3.726-1.518,8.509-4.32,10.058-11.279h-7.221
			c-0.792,0-1.782,0-1.782-1.055c0-1.056,0.957-1.056,1.782-1.056h7.552c0.066-0.561,0.165-1.483,0.165-3.034
			c0-1.748,0-2.639,1.087-2.639c1.122,0,1.122,0.924,1.122,2.408c0,1.418-0.099,2.638-0.165,3.265H342.865z M326.771,118.175
			c-0.197-0.164-0.296-0.363-1.088-2.012c-0.593-1.253-1.121-2.374-1.121-2.572c0-0.396,0.396-1.056,1.089-1.056
			c0.593,0,0.955,0.363,1.385,1.353c0.264,0.594,1.385,3.1,1.385,3.529c0,0.494-0.23,0.659-0.396,0.758h6.002
			c-0.627-0.429-2.178-4.781-2.178-5.145c0-0.462,0.397-1.056,1.089-1.056c0.792,0,0.99,0.594,1.483,1.88
			c0.43,1.188,1.188,3.231,1.188,3.563c0,0.494-0.263,0.626-0.494,0.758h4.947c0.593-0.989,1.188-2.044,2.176-4.155
			c0.66-1.386,0.792-1.747,1.518-1.747c0.594,0,1.055,0.494,1.055,1.055s-1.747,4.057-2.176,4.848h3.661
			c1.252,0,2.308,0.759,2.308,2.177v3.66c0,0.792,0,1.781-1.088,1.781c-1.056,0-1.056-0.989-1.056-1.781v-2.407
			c0-0.791-0.297-1.319-1.188-1.319h-21.964c-0.923,0-1.22,0.627-1.22,1.319v2.474c0,0.758,0,1.715-1.056,1.715
			c-1.022,0-1.022-0.957-1.022-1.715v-3.661c0-2.242,1.748-2.242,2.441-2.242H326.771z"/>
		<path fill="#FFFFFF" d="M366.077,124.012v-4.881h-11.674c-0.857,0-1.913,0-1.913-1.153c0-1.122,1.056-1.122,1.913-1.122h11.674
			v-2.539c0-0.89,0-1.945,1.154-1.945s1.154,1.088,1.154,1.945v2.539h11.872c0.858,0,1.88,0,1.88,1.122
			c0,1.153-1.055,1.153-1.88,1.153h-11.872v4.881h8.047c0.33,0,2.242,0.462,2.242,2.441c0,2.011-3.1,6.332-8.112,9.959
			c4.353,2.506,8.871,3.43,10.85,3.792c0.331,0.066,1.056,0.198,1.056,1.056c0,0.165-0.065,1.154-1.253,1.154
			c-0.957,0-7.223-1.056-12.763-4.65c-0.99,0.594-4.288,2.44-9.3,3.694c-0.33,0.099-5.079,1.22-6.102,1.22
			c-1.056,0-1.318-0.791-1.318-1.188c0-0.856,0.758-1.021,1.187-1.088c6.53-1.22,9.729-2.11,13.39-4.122
			c-3.134-2.408-5.64-5.276-7.256-9.992h-1.648c-0.857,0-1.88,0-1.88-1.154c0-1.122,1.022-1.122,1.88-1.122H366.077z
			 M361.427,126.288c1.451,4.221,4.683,7.091,6.959,8.738c2.639-1.813,4.552-3.495,6.002-5.276c0.562-0.659,1.551-2.176,1.551-2.671
			c0-0.396-0.363-0.791-0.858-0.791H361.427z"/>
		<path fill="#FFFFFF" d="M393.841,119.231c0.726,0,1.683,0,1.683,0.989c0,1.022-0.924,1.022-1.683,1.022H391.6v6.067
			c1.188-0.428,2.935-1.154,3.198-1.154c0.495,0,0.89,0.528,0.89,1.022c0,0.792-0.725,1.089-4.088,2.375v10.389
			c0,1.483-0.726,2.44-1.979,2.44c-1.484,0-3.364-0.462-4.188-0.793c-0.362-0.131-0.692-0.461-0.692-0.955
			c0-0.462,0.363-0.99,0.924-0.99c0.296,0,1.12,0.265,1.648,0.396c0.594,0.164,1.089,0.23,1.583,0.23c0.66,0,0.66-0.461,0.66-0.989
			v-8.97c-0.858,0.296-3.858,1.286-4.452,1.286c-0.659,0-1.089-0.562-1.089-1.089c0-0.165,0.033-0.759,0.594-0.989
			c0.264-0.099,4.287-1.352,4.947-1.55v-6.728h-2.639c-0.759,0-1.682,0-1.682-1.022c0-0.989,0.89-0.989,1.682-0.989h2.639v-5.244
			c0-0.759,0-1.714,1.021-1.714c1.023,0,1.023,0.923,1.023,1.714v5.244H393.841z M413.76,127.146c0.726,0,1.649,0,1.649,0.989
			s-0.891,0.989-1.649,0.989h-11.278c-0.297,0.857-0.494,1.385-0.691,1.813h9.397c0.924,0,1.946,0.495,1.946,1.781
			c0,1.418-1.319,3.495-3.892,5.474c2.11,1.122,4.09,1.781,5.276,2.11c0.429,0.1,0.989,0.298,0.989,1.056
			c0,0.495-0.363,1.023-0.956,1.023c-0.494,0-4.122-0.858-7.354-2.837c-3.893,2.276-9.366,3.331-9.861,3.331
			c-0.692,0-1.055-0.561-1.055-1.022c0-0.857,0.758-1.056,1.188-1.121c2.77-0.528,5.21-1.286,7.684-2.572
			c-1.813-1.418-3.331-2.969-4.42-5.079c-2.275,3.957-6.167,7.618-6.925,7.618c-0.462,0-1.088-0.396-1.088-1.121
			c0-0.297,0.032-0.495,0.527-0.891c2.474-2.044,5.243-5.046,6.859-9.563h-2.375c-0.725,0-1.647,0-1.647-0.989
			s0.889-0.989,1.647-0.989h3.001c0.363-1.254,0.462-1.979,0.562-2.54h-3.1c-0.792,0-1.684,0-1.684-1.022
			c0-1.055,0.892-1.055,1.684-1.055h10.354c1.319-1.913,2.31-3.76,3.265-6.003c0.132-0.296,0.331-0.758,1.022-0.758
			c0.627,0,1.088,0.494,1.088,0.957c0,0.988-2.473,5.078-2.935,5.804h2.078c0.758,0,1.715,0,1.715,1.055
			c0,1.022-0.957,1.022-1.715,1.022h-9.531c-0.197,1.319-0.33,1.946-0.494,2.54H413.76z M415.476,113.723
			c0,0.891-0.43,0.957-3.957,1.319c-2.178,0.23-11.938,0.957-15.335,0.957c-0.265,0-1.089,0-1.089-0.892
			c0-0.856,0.824-0.89,1.417-0.923c5.739-0.198,12.005-0.659,17.71-1.385C414.652,112.8,415.476,112.8,415.476,113.723z
			 M399.944,122.165c-0.693,0-0.793-0.462-1.617-2.341c-0.066-0.133-0.494-1.22-0.627-1.484c-0.099-0.23-0.164-0.462-0.164-0.594
			c0-0.396,0.429-0.956,1.022-0.956c0.726,0,0.89,0.429,1.319,1.385c0.329,0.726,1.153,2.639,1.055,3.232
			C400.866,121.737,400.504,122.165,399.944,122.165z M405.285,122.232c-0.726,0-0.857-0.264-1.55-2.474
			c-0.1-0.264-0.627-1.682-0.692-1.946c-0.033-0.099-0.1-0.296-0.1-0.461c0-0.462,0.429-0.957,1.022-0.957
			c0.363,0,0.594,0.1,0.824,0.43c0.429,0.561,1.385,3.594,1.484,4.154C406.406,121.737,405.846,122.232,405.285,122.232z
			 M403.274,132.949c0.758,1.056,1.913,2.507,3.858,3.957c2.407-1.813,3.101-3.265,3.101-3.527c0-0.298-0.396-0.43-0.595-0.43
			H403.274z"/>
	</g>
</g>
<rect x="75.508" y="102.349" fill="#6DAF05" width="45.614" height="45.614"/>
<g>
	<g enable-background="new    ">
		<path fill="#FFFFFF" d="M88.427,121.315c2.492,2.107,2.523,2.428,2.523,2.811c0,0.544-0.447,1.054-1.086,1.054
			c-0.447,0-0.575-0.127-1.917-1.373c-1.182-1.118-2.044-1.756-3.801-3.034c-0.575-0.447-0.863-0.671-0.863-1.182
			c0-0.479,0.319-1.086,1.086-1.086C85.041,118.504,87.532,120.58,88.427,121.315z M84.626,137.253
			c0.352-0.447,3.13-4.312,4.408-8.336c0.256-0.831,0.447-1.502,1.278-1.502c0.511,0,1.054,0.383,1.054,1.086
			c0,0.512-0.927,3.929-4.185,8.912c-0.862,1.341-1.98,3.065-2.747,3.065c-0.702,0-1.182-0.702-1.054-1.31
			C83.412,138.946,84.37,137.605,84.626,137.253z M90.279,114.735c1.629,1.63,1.629,1.885,1.629,2.204
			c0,0.479-0.416,0.959-0.99,0.959c-0.383,0-0.607-0.192-1.086-0.671c-1.821-1.757-2.108-1.981-4.44-4.025
			c-0.639-0.543-0.799-0.702-0.799-1.117c0-0.512,0.416-1.022,1.086-1.022C86.414,111.062,89.257,113.744,90.279,114.735z
			 M110.945,113.298c0.671,0,1.533,0,1.533,0.894c0,0.958-0.83,0.958-1.533,0.958h-7.826v2.108h7.123c0.67,0,1.533,0,1.533,0.895
			c0,0.894-0.831,0.894-1.533,0.894h-7.123v2.108h8.113c0.767,0,1.725,0,1.725,0.99c0,1.022-0.926,1.022-1.725,1.022H92.93
			c-0.767,0-1.693,0-1.693-0.99c0-1.022,0.895-1.022,1.693-1.022h7.985v-2.108h-7.091c-0.67,0-1.533,0-1.533-0.894
			c0-0.895,0.831-0.895,1.533-0.895h7.091v-2.108H93.25c-0.703,0-1.533,0-1.533-0.926s0.831-0.926,1.533-0.926h7.666v-0.575
			c0-0.831,0-1.854,1.085-1.854c1.118,0,1.118,0.991,1.118,1.854v0.575H110.945z M95.39,135.145v3.29c0,0.83,0,1.853-1.086,1.853
			c-1.118,0-1.118-0.99-1.118-1.853v-11.402c0-1.405,0.83-2.14,1.821-2.14h13.83c0.895,0,2.076,0.766,2.076,1.979v11.275
			c0,2.013-2.108,2.013-2.811,2.013c-1.149,0-3.29-0.256-4.28-0.64c-0.415-0.159-0.798-0.479-0.798-1.021
			c0-0.479,0.383-1.022,1.022-1.022c0.224,0,0.352,0.031,1.406,0.319c0.351,0.096,1.31,0.352,2.14,0.352
			c1.086,0,1.246-0.288,1.246-1.15v-1.853H95.39z M108.837,129.044v-1.182c0-0.606-0.542-1.118-1.214-1.118H96.444
			c-0.798,0-1.054,0.543-1.054,1.31v0.99H108.837z M108.837,133.101v-2.204H95.39v2.204H108.837z"/>
	</g>
</g>
<rect x="126.927" y="102.349" fill="#00A99D" width="46.443" height="45.614"/>
<g>
	<g enable-background="new    ">
		<path fill="#FFFFFF" d="M143.431,116.492c1.246,0,1.789,0.638,1.789,1.884c0,0.703-0.415,2.778-2.332,5.781
			c0.639,0.767,1.469,1.661,2.236,2.491c0.703,0.799,0.734,0.831,0.734,1.149c0,0.575-0.383,0.991-0.958,0.991
			c-0.479,0-0.767-0.224-2.012-1.629c-0.67-0.768-0.734-0.831-0.926-1.086v12.521c0,0.767,0,1.789-1.054,1.789
			c-1.054,0-1.054-1.022-1.054-1.789v-10.509c-0.958,1.055-3.322,3.513-4.088,3.513c-0.479,0-1.054-0.414-1.054-1.021
			c0-0.447,0.16-0.574,1.597-1.853c4.951-4.439,6.675-8.688,6.675-9.741c0-0.447-0.319-0.512-0.735-0.512h-4.918
			c-0.767,0-1.693,0-1.693-0.99c0-0.989,0.926-0.989,1.693-0.989h2.523v-3.77c0-0.799,0-1.789,1.085-1.789
			c1.054,0,1.054,1.021,1.054,1.789v3.77H143.431z M162.404,112.116c0.703,0,1.597,0,1.597,0.958s-0.862,0.958-1.597,0.958H147.36
			c-0.703,0-1.597,0-1.597-0.958s0.862-0.958,1.597-0.958H162.404z M161.319,126.106c1.597,0,2.523,1.117,2.523,2.332v8.976
			c0,1.245-0.99,2.3-2.523,2.3h-12.84c-1.565,0-2.492-1.086-2.492-2.3v-8.976c0-1.277,0.99-2.332,2.492-2.332H161.319z
			 M147.328,118.088c0-2.108,1.693-2.108,2.299-2.108h10.764c1.917,0,2.3,1.215,2.3,2.108v4.313c0,1.277-1.214,1.917-2.523,1.917
			h-10.316c-2.332,0-2.523-1.63-2.523-1.917V118.088z M153.876,131.856v-3.642h-4.44c-0.351,0-1.278,0-1.278,1.245v2.396H153.876z
			 M148.158,133.804v2.65c0,1.246,0.927,1.246,1.278,1.246h4.44v-3.896H148.158z M150.427,117.961c-0.511,0-0.926,0.319-0.926,0.926
			v2.523c0,0.606,0.415,0.895,0.926,0.895h9.263c0.511,0,0.927-0.288,0.927-0.895v-2.523c0-0.639-0.448-0.926-0.927-0.926H150.427z
			 M161.765,131.856v-2.396c0-1.245-0.926-1.245-1.277-1.245h-4.536v3.642H161.765z M155.952,133.804v3.896h4.536
			c0.351,0,1.277,0,1.277-1.246v-2.65H155.952z"/>
	</g>
</g>
<g>
	<g enable-background="new    ">
		<path fill="#EBF49A" d="M119.87,51.852c2.717,2.299,2.752,2.647,2.752,3.065c0,0.593-0.488,1.15-1.185,1.15
			c-0.488,0-0.627-0.14-2.09-1.499c-1.289-1.219-2.23-1.916-4.146-3.309c-0.627-0.488-0.941-0.732-0.941-1.29
			c0-0.522,0.348-1.184,1.185-1.184C116.177,48.787,118.894,51.052,119.87,51.852z M115.724,69.237
			c0.384-0.487,3.415-4.703,4.808-9.093c0.279-0.906,0.488-1.638,1.394-1.638c0.557,0,1.15,0.418,1.15,1.185
			c0,0.557-1.011,4.284-4.564,9.72c-0.941,1.463-2.16,3.344-2.996,3.344c-0.767,0-1.289-0.766-1.15-1.428
			C114.4,71.084,115.446,69.62,115.724,69.237z M121.891,44.676c1.776,1.777,1.776,2.055,1.776,2.404
			c0,0.522-0.453,1.044-1.08,1.044c-0.418,0-0.662-0.209-1.185-0.731c-1.985-1.916-2.299-2.16-4.842-4.39
			c-0.697-0.592-0.871-0.766-0.871-1.22c0-0.557,0.453-1.114,1.185-1.114C117.675,40.669,120.776,43.595,121.891,44.676z
			 M144.431,43.108c0.732,0,1.672,0,1.672,0.975c0,1.046-0.905,1.046-1.672,1.046h-8.536v2.299h7.769c0.732,0,1.672,0,1.672,0.975
			c0,0.976-0.906,0.976-1.672,0.976h-7.769v2.299h8.849c0.836,0,1.881,0,1.881,1.08c0,1.115-1.01,1.115-1.881,1.115h-19.963
			c-0.835,0-1.846,0-1.846-1.081c0-1.114,0.976-1.114,1.846-1.114h8.71v-2.299h-7.734c-0.731,0-1.672,0-1.672-0.976
			c0-0.975,0.905-0.975,1.672-0.975h7.734v-2.299h-8.361c-0.767,0-1.672,0-1.672-1.01c0-1.011,0.906-1.011,1.672-1.011h8.361v-0.627
			c0-0.906,0-2.021,1.185-2.021c1.219,0,1.219,1.08,1.219,2.021v0.627H144.431z M127.465,66.938v3.588c0,0.906,0,2.021-1.185,2.021
			c-1.219,0-1.219-1.08-1.219-2.021V58.089c0-1.533,0.905-2.334,1.985-2.334h15.085c0.976,0,2.265,0.836,2.265,2.16v12.297
			c0,2.195-2.299,2.195-3.066,2.195c-1.254,0-3.588-0.278-4.668-0.696c-0.453-0.174-0.871-0.522-0.871-1.115
			c0-0.522,0.418-1.115,1.115-1.115c0.244,0,0.384,0.035,1.533,0.349c0.383,0.104,1.428,0.383,2.334,0.383
			c1.185,0,1.359-0.313,1.359-1.254v-2.021H127.465z M142.132,60.283v-1.289c0-0.662-0.592-1.219-1.324-1.219h-12.194
			c-0.871,0-1.149,0.592-1.149,1.428v1.08H142.132z M142.132,64.708v-2.404h-14.667v2.404H142.132z"/>
	</g>
	<g enable-background="new    ">
		<path fill="#EBF49A" d="M158.5,47.741c0.836,0,1.847,0,1.847,1.08c0,1.115-1.01,1.115-1.847,1.115h-1.707v6.619
			c0.244-0.104,2.021-0.836,2.264-0.836c0.383,0,0.976,0.383,0.976,1.01c0,0.522-0.069,0.872-3.24,2.16v10.382
			c0,1.219-0.14,2.857-2.683,2.857c-0.557,0-4.599-0.383-4.599-1.951c0-0.348,0.209-1.01,1.15-1.01c0.209,0,0.349,0.07,1.637,0.522
			c0.313,0.104,0.627,0.174,1.011,0.174c1.185,0,1.185-0.279,1.185-1.568v-8.535c-0.836,0.313-3.24,1.149-4.042,1.149
			c-0.871,0-1.011-0.766-1.011-1.08c0-0.627,0.349-0.906,0.941-1.081c2.683-0.835,2.961-0.905,4.111-1.324v-7.49h-2.997
			c-0.801,0-1.812,0-1.812-1.08c0-1.115,0.976-1.115,1.812-1.115h2.997v-5.33c0-0.837,0-1.881,1.149-1.881
			c1.15,0,1.15,1.01,1.15,1.881v5.33H158.5z M171.948,59.064h4.913c2.438,0,2.474,1.986,2.474,2.474v5.4
			c0,1.672-0.593,3.065-2.927,3.065c-0.801,0-2.334-0.278-3.205-0.627c-0.418-0.139-0.836-0.487-0.836-1.045
			c0-0.418,0.279-1.08,1.08-1.08c0.418,0,2.195,0.487,2.543,0.487c1.045,0,1.08-0.626,1.08-1.812v-3.658
			c0-0.802-0.244-1.045-1.115-1.045h-4.007v9.302c0,0.836,0,1.917-1.149,1.917c-1.185,0-1.185-1.045-1.185-1.917v-9.302h-3.728
			c-1.08,0-1.08,0.802-1.08,1.359v5.818c0,0.836,0,1.881-1.115,1.881c-1.15,0-1.15-1.045-1.15-1.881v-6.236
			c0-1.394,0.209-3.101,2.822-3.101h4.25v-2.578h-5.783c-0.871,0-1.498,0.069-1.498,1.498v1.602c0,0.767,0,1.742-1.045,1.742
			c-1.045,0-1.045-0.94-1.045-1.742v-2.474c0-1.289,0.522-2.752,2.647-2.752h16.131c1.219,0,2.473,0.522,2.473,2.404v2.892
			c0,0.767,0,1.707-1.01,1.707c-1.045,0-1.045-0.94-1.045-1.707v-2.23c0-0.662-0.453-0.94-1.324-0.94h-6.167V59.064z
			 M164.005,47.776c-0.767,0-1.672,0-1.672-0.975c0-1.011,0.906-1.011,1.672-1.011h13.169v-1.393c0-0.663-0.035-1.22-1.289-1.22
			h-12.263c-0.732,0-1.672,0-1.672-1.01c0-1.046,0.906-1.046,1.672-1.046h13.064c1.986,0,2.752,1.115,2.752,2.404v6.097
			c0,0.905,0,2.856-2.927,2.856h-12.786c-0.801,0-1.812,0-1.812-1.08c0-1.081,0.975-1.081,1.812-1.081h11.985
			c0.836,0,1.463-0.104,1.463-1.393v-1.15H164.005z"/>
	</g>
	<g enable-background="new    ">
		<path fill="#FEFFEE" d="M206.71,58.766l7.908,8.083c0.279,0.314,0.523,0.697,0.523,1.185c0,0.627-0.453,1.255-1.185,1.255
			c-0.418,0-0.767-0.21-1.115-0.558l-7.943-8.117l-7.908,8.117c-0.279,0.313-0.662,0.558-1.149,0.558
			c-0.697,0-1.185-0.628-1.185-1.255c0-0.522,0.279-0.905,0.558-1.185l7.908-8.083l-7.908-8.083
			c-0.348-0.349-0.558-0.766-0.558-1.149c0-0.593,0.418-1.29,1.185-1.29c0.487,0,0.871,0.244,1.149,0.558l7.908,8.118l7.943-8.118
			c0.348-0.349,0.697-0.558,1.115-0.558c0.801,0,1.185,0.731,1.185,1.255c0,0.487-0.244,0.871-0.523,1.184L206.71,58.766z"/>
	</g>
	<g enable-background="new    ">
		<path fill="#C7F4F9" d="M240.706,46.592c1.359,0,1.951,0.696,1.951,2.056c0,0.766-0.453,3.031-2.543,6.305
			c0.697,0.836,1.603,1.812,2.439,2.718c0.767,0.871,0.801,0.906,0.801,1.254c0,0.627-0.418,1.081-1.045,1.081
			c-0.522,0-0.836-0.244-2.195-1.777c-0.731-0.836-0.801-0.906-1.01-1.185V70.7c0,0.836,0,1.951-1.149,1.951
			c-1.15,0-1.15-1.114-1.15-1.951V59.238c-1.045,1.15-3.623,3.833-4.459,3.833c-0.522,0-1.149-0.453-1.149-1.115
			c0-0.488,0.174-0.627,1.742-2.021c5.4-4.843,7.281-9.477,7.281-10.626c0-0.488-0.348-0.557-0.801-0.557h-5.365
			c-0.836,0-1.846,0-1.846-1.081c0-1.08,1.01-1.08,1.846-1.08h2.752v-4.111c0-0.871,0-1.951,1.185-1.951
			c1.149,0,1.149,1.114,1.149,1.951v4.111H240.706z M261.401,41.819c0.766,0,1.741,0,1.741,1.045c0,1.045-0.939,1.045-1.741,1.045
			h-16.41c-0.767,0-1.742,0-1.742-1.045c0-1.045,0.94-1.045,1.742-1.045H261.401z M260.216,57.078c1.741,0,2.752,1.22,2.752,2.543
			v9.791c0,1.358-1.08,2.508-2.752,2.508H246.21c-1.707,0-2.717-1.185-2.717-2.508v-9.791c0-1.393,1.08-2.543,2.717-2.543H260.216z
			 M244.956,48.333c0-2.299,1.846-2.299,2.509-2.299h11.74c2.091,0,2.509,1.324,2.509,2.299v4.704c0,1.393-1.324,2.089-2.752,2.089
			h-11.253c-2.544,0-2.753-1.776-2.753-2.089V48.333z M252.099,63.349v-3.972h-4.843c-0.384,0-1.394,0-1.394,1.359v2.613H252.099z
			 M245.862,65.474v2.891c0,1.359,1.01,1.359,1.394,1.359h4.843v-4.25H245.862z M248.335,48.194c-0.557,0-1.01,0.348-1.01,1.011
			v2.752c0,0.662,0.453,0.975,1.01,0.975h10.104c0.557,0,1.01-0.313,1.01-0.975v-2.752c0-0.697-0.487-1.011-1.01-1.011H248.335z
			 M260.703,63.349v-2.613c0-1.359-1.011-1.359-1.394-1.359h-4.946v3.972H260.703z M254.364,65.474v4.25h4.946
			c0.383,0,1.394,0,1.394-1.359v-2.891H254.364z"/>
		<path fill="#C7F4F9" d="M277.142,47.219c1.985,0,2.229,1.429,2.229,1.951c0,0.557-0.557,3.1-3.448,6.828
			c0.487,0.557,1.498,1.638,3.239,3.031c1.429,1.15,1.568,1.22,1.568,1.638c0,0.801-0.696,1.184-1.114,1.184
			c-0.768,0-2.928-1.672-4.738-3.623V70.56c0,0.872,0,1.882-1.15,1.882c-1.114,0-1.114-1.045-1.114-1.882V59.586
			c-1.464,1.254-4.355,3.38-5.261,3.38c-0.488,0-1.114-0.418-1.114-1.15c0-0.662,0.278-0.835,1.393-1.532
			c8.014-5.051,8.849-10.069,8.849-10.208c0-0.522-0.348-0.522-0.592-0.522h-6.654c-0.906,0-1.951,0-1.951-1.15
			c0-1.184,1.081-1.184,1.951-1.184h3.38v-4.808c0-0.872,0-1.881,1.149-1.881c1.115,0,1.115,1.044,1.115,1.881v4.808H277.142z
			 M282.297,69.133V49.797c0-0.871,0-1.916,1.149-1.916s1.149,1.081,1.149,1.916v19.336h3.729V42.411c0-0.906,0-1.881,1.185-1.881
			c1.149,0,1.149,1.01,1.149,1.881v9.406h5.539c0.906,0,1.986,0,1.986,1.22c0,1.149-1.115,1.149-1.986,1.149h-5.539v14.946h5.992
			c0.905,0,1.951,0,1.951,1.149c0,1.185-1.08,1.185-1.951,1.185h-16.792c-0.871,0-1.951,0-1.951-1.185
			c0-1.149,1.08-1.149,1.951-1.149H282.297z"/>
	</g>
	<g enable-background="new    ">
		<path fill="#FEFFEE" d="M318.8,61.17c0-1.359-0.453-1.498-1.115-1.498h-2.578c-0.766,0-1.776,0-1.776-1.08
			c0-1.081,0.975-1.081,1.776-1.081h4.181c0.279,0,1.812,0.348,1.812,2.543v8.292c0,0.941,0.871,2.613,2.787,3.38
			c1.185,0.487,2.404,0.592,4.285,0.592h14.911c0.802,0,1.812,0,1.812,1.08c0,1.115-0.976,1.115-1.812,1.115H327.51
			c-1.742,0-5.366-0.174-7.631-3.484c-1.254,1.115-4.563,3.728-5.714,3.728c-0.73,0-1.079-0.592-1.079-1.08
			c0-0.628,0.21-0.767,2.125-1.986c0.522-0.349,1.986-1.324,3.658-2.962c-0.034-0.209-0.069-0.279-0.069-0.453V61.17z
			 M320.647,50.405c0,0.522-0.418,1.15-1.185,1.15c-0.593,0-0.731-0.174-1.847-1.707c-0.976-1.29-2.021-2.474-3.101-3.624
			c-0.592-0.627-0.837-0.94-0.837-1.358c0-0.836,0.837-1.289,1.429-1.115C315.943,44.03,320.647,49.291,320.647,50.405z
			 M339.32,50.962c2.961,0,2.961,2.09,2.961,2.369v8.118c0,0.313,0,2.369-2.961,2.369h-5.017v2.16h8.675
			c0.767,0,1.742,0,1.742,1.046c0,1.045-0.94,1.045-1.742,1.045h-8.675v1.777c0,0.836,0,1.881-1.149,1.881
			c-1.15,0-1.15-1.045-1.15-1.881v-1.777h-7.942c-0.767,0-1.742,0-1.742-1.01c0-1.081,0.94-1.081,1.742-1.081h7.942v-2.16h-5.12
			c-2.962,0-2.962-2.125-2.962-2.369v-8.118c0-0.209,0.035-1.289,1.01-1.95c0.663-0.454,1.255-0.419,1.952-0.419h5.12v-2.09h-7.769
			c-0.836,0-1.881,0-1.881-1.114c0-1.115,1.045-1.115,1.881-1.115h7.769v-1.498c0-0.837,0-1.881,1.15-1.881
			c1.149,0,1.149,1.01,1.149,1.881v1.498h7.978c0.836,0,1.882,0,1.882,1.115c0,1.114-1.046,1.114-1.882,1.114h-7.978v2.09H339.32z
			 M332.003,56.293v-3.31h-4.424c-0.593,0-1.394,0.174-1.394,1.08v2.23H332.003z M326.186,58.384v2.299
			c0,0.905,0.801,1.08,1.394,1.08h4.424v-3.379H326.186z M340.121,56.293v-2.23c0-0.906-0.802-1.08-1.395-1.08h-4.424v3.31H340.121z
			 M334.303,58.384v3.379h4.424c0.593,0,1.395-0.174,1.395-1.08v-2.299H334.303z"/>
		<path fill="#FEFFEE" d="M377.009,50.788c0.662,0,1.498,0,1.498,0.871c0,0.906-0.801,0.906-1.498,0.906h-5.47v2.125h5.435
			c0.697,0,1.533,0,1.533,0.906c0,0.941-0.836,0.941-1.533,0.941h-5.435v2.16h6.41c0.767,0,1.707,0,1.707,1.01
			c0,1.046-0.905,1.046-1.707,1.046h-13.761c-3.171,0-3.24-1.185-3.24-2.997v-6.27c-1.533,1.707-1.707,1.916-2.265,1.916
			c-0.104,0-0.801,0-1.046-0.871c-0.208,0.035-0.278,0.035-0.87,0.035h-1.637v5.958c0.452-0.209,1.219-0.593,2.438-1.22
			c0.314-0.139,0.593-0.278,0.906-0.278c0.592,0,1.149,0.487,1.149,1.15c0,0.348-0.104,0.592-0.418,0.836
			c-0.592,0.453-2.856,1.533-4.075,2.056v10.73c0,1.462,0,3.239-2.788,3.239c-1.498,0-3.345-0.626-3.763-0.801
			c-0.349-0.174-0.696-0.488-0.696-1.011c0-0.488,0.384-1.08,1.08-1.08c0.453,0,2.438,0.627,2.856,0.627
			c0.801,0,0.977-0.244,0.977-1.324v-9.407c-1.046,0.453-3.833,1.533-4.565,1.533c-0.592,0-1.079-0.522-1.079-1.114
			c0-0.697,0.487-1.011,1.046-1.22c0.73-0.278,3.971-1.463,4.599-1.707v-6.968h-2.893c-0.767,0-1.742,0-1.742-1.01
			c0-1.045,0.941-1.045,1.742-1.045h2.893v-5.33c0-0.872,0-1.951,1.148-1.951c1.186,0,1.186,1.045,1.186,1.951v5.33h1.637
			c1.01,0,1.324,0,1.638,0.557c1.464-1.671,3.101-3.518,4.354-6.026c1.081-2.195,1.22-2.438,1.847-2.438
			c0.592,0,1.045,0.522,1.045,0.94c0,0.697-1.011,2.578-1.323,3.101h5.121c0.174-0.418,0.836-2.404,0.976-2.787
			c0.174-0.453,0.383-1.044,1.149-1.044c0.522,0,1.115,0.417,1.115,1.044c0,0.244-0.662,2.404-0.802,2.787h5.609
			c0.767,0,1.741,0,1.741,1.081c0,1.044-0.94,1.044-1.741,1.044h-5.958v2.021H377.009z M360.6,64.794c-0.767,0-1.707,0-1.707-1.011
			c0-1.044,0.94-1.044,1.707-1.044h11.148c0.593,0,2.265,0,2.265,1.498c0,0.383-0.139,0.941-0.243,1.22
			c-0.071,0.174-0.28,0.835-0.28,0.975c0,0.348,0.35,0.348,0.872,0.348h2.229c1.497,0,2.438,0.21,2.438,1.847
			c0,0.872-0.209,2.404-0.661,3.658c-0.628,1.812-1.568,2.822-4.879,2.822c-2.473,0-5.086-0.801-5.469-0.975
			c-0.349-0.139-0.662-0.488-0.662-0.976c0-0.418,0.244-1.01,0.976-1.01c0.175,0,0.348,0,1.115,0.209
			c0.87,0.244,2.438,0.627,3.867,0.627c1.01,0,3.414,0,3.414-3.344c0-0.383-0.035-0.697-0.697-0.697h-3.065
			c-0.558,0-2.091,0-2.091-1.393c0-0.383,0.593-2.056,0.593-2.404c0-0.349-0.209-0.349-0.767-0.349h-4.216
			c-0.696,4.11-2.09,7.629-7.212,10.242c-0.696,0.349-1.044,0.418-1.323,0.418c-0.627,0-1.149-0.383-1.149-1.044
			c0-0.697,0.313-0.872,1.672-1.568c3.971-2.056,5.296-4.877,5.714-8.047H360.6z M369.276,50.788v-2.021h-4.844
			c-0.661,0-1.149,0.104-1.149,1.22v0.801H369.276z M369.276,54.69v-2.125h-5.993v2.125H369.276z M363.282,56.537v0.906
			c0,0.976,0.07,1.254,1.186,1.254h4.808v-2.16H363.282z"/>
	</g>
	<g enable-background="new    ">
		<path fill="#EBF49A" d="M119.87,51.852c2.717,2.299,2.752,2.647,2.752,3.065c0,0.593-0.488,1.15-1.185,1.15
			c-0.488,0-0.627-0.14-2.09-1.499c-1.289-1.219-2.23-1.916-4.146-3.309c-0.627-0.488-0.941-0.732-0.941-1.29
			c0-0.522,0.348-1.184,1.185-1.184C116.177,48.787,118.894,51.052,119.87,51.852z M115.724,69.237
			c0.384-0.487,3.415-4.703,4.808-9.093c0.279-0.906,0.488-1.638,1.394-1.638c0.557,0,1.15,0.418,1.15,1.185
			c0,0.557-1.011,4.284-4.564,9.72c-0.941,1.463-2.16,3.344-2.996,3.344c-0.767,0-1.289-0.766-1.15-1.428
			C114.4,71.084,115.446,69.62,115.724,69.237z M121.891,44.676c1.776,1.777,1.776,2.055,1.776,2.404
			c0,0.522-0.453,1.044-1.08,1.044c-0.418,0-0.662-0.209-1.185-0.731c-1.985-1.916-2.299-2.16-4.842-4.39
			c-0.697-0.592-0.871-0.766-0.871-1.22c0-0.557,0.453-1.114,1.185-1.114C117.675,40.669,120.776,43.595,121.891,44.676z
			 M144.431,43.108c0.732,0,1.672,0,1.672,0.975c0,1.046-0.905,1.046-1.672,1.046h-8.536v2.299h7.769c0.732,0,1.672,0,1.672,0.975
			c0,0.976-0.906,0.976-1.672,0.976h-7.769v2.299h8.849c0.836,0,1.881,0,1.881,1.08c0,1.115-1.01,1.115-1.881,1.115h-19.963
			c-0.835,0-1.846,0-1.846-1.081c0-1.114,0.976-1.114,1.846-1.114h8.71v-2.299h-7.734c-0.731,0-1.672,0-1.672-0.976
			c0-0.975,0.905-0.975,1.672-0.975h7.734v-2.299h-8.361c-0.767,0-1.672,0-1.672-1.01c0-1.011,0.906-1.011,1.672-1.011h8.361v-0.627
			c0-0.906,0-2.021,1.185-2.021c1.219,0,1.219,1.08,1.219,2.021v0.627H144.431z M127.465,66.938v3.588c0,0.906,0,2.021-1.185,2.021
			c-1.219,0-1.219-1.08-1.219-2.021V58.089c0-1.533,0.905-2.334,1.985-2.334h15.085c0.976,0,2.265,0.836,2.265,2.16v12.297
			c0,2.195-2.299,2.195-3.066,2.195c-1.254,0-3.588-0.278-4.668-0.696c-0.453-0.174-0.871-0.522-0.871-1.115
			c0-0.522,0.418-1.115,1.115-1.115c0.244,0,0.384,0.035,1.533,0.349c0.383,0.104,1.428,0.383,2.334,0.383
			c1.185,0,1.359-0.313,1.359-1.254v-2.021H127.465z M142.132,60.283v-1.289c0-0.662-0.592-1.219-1.324-1.219h-12.194
			c-0.871,0-1.149,0.592-1.149,1.428v1.08H142.132z M142.132,64.708v-2.404h-14.667v2.404H142.132z"/>
	</g>
	<g enable-background="new    ">
		<path fill="#EBF49A" d="M158.5,47.741c0.836,0,1.847,0,1.847,1.08c0,1.115-1.01,1.115-1.847,1.115h-1.707v6.619
			c0.244-0.104,2.021-0.836,2.264-0.836c0.383,0,0.976,0.383,0.976,1.01c0,0.522-0.069,0.872-3.24,2.16v10.382
			c0,1.219-0.14,2.857-2.683,2.857c-0.557,0-4.599-0.383-4.599-1.951c0-0.348,0.209-1.01,1.15-1.01c0.209,0,0.349,0.07,1.637,0.522
			c0.313,0.104,0.627,0.174,1.011,0.174c1.185,0,1.185-0.279,1.185-1.568v-8.535c-0.836,0.313-3.24,1.149-4.042,1.149
			c-0.871,0-1.011-0.766-1.011-1.08c0-0.627,0.349-0.906,0.941-1.081c2.683-0.835,2.961-0.905,4.111-1.324v-7.49h-2.997
			c-0.801,0-1.812,0-1.812-1.08c0-1.115,0.976-1.115,1.812-1.115h2.997v-5.33c0-0.837,0-1.881,1.149-1.881
			c1.15,0,1.15,1.01,1.15,1.881v5.33H158.5z M171.948,59.064h4.913c2.438,0,2.474,1.986,2.474,2.474v5.4
			c0,1.672-0.593,3.065-2.927,3.065c-0.801,0-2.334-0.278-3.205-0.627c-0.418-0.139-0.836-0.487-0.836-1.045
			c0-0.418,0.279-1.08,1.08-1.08c0.418,0,2.195,0.487,2.543,0.487c1.045,0,1.08-0.626,1.08-1.812v-3.658
			c0-0.802-0.244-1.045-1.115-1.045h-4.007v9.302c0,0.836,0,1.917-1.149,1.917c-1.185,0-1.185-1.045-1.185-1.917v-9.302h-3.728
			c-1.08,0-1.08,0.802-1.08,1.359v5.818c0,0.836,0,1.881-1.115,1.881c-1.15,0-1.15-1.045-1.15-1.881v-6.236
			c0-1.394,0.209-3.101,2.822-3.101h4.25v-2.578h-5.783c-0.871,0-1.498,0.069-1.498,1.498v1.602c0,0.767,0,1.742-1.045,1.742
			c-1.045,0-1.045-0.94-1.045-1.742v-2.474c0-1.289,0.522-2.752,2.647-2.752h16.131c1.219,0,2.473,0.522,2.473,2.404v2.892
			c0,0.767,0,1.707-1.01,1.707c-1.045,0-1.045-0.94-1.045-1.707v-2.23c0-0.662-0.453-0.94-1.324-0.94h-6.167V59.064z
			 M164.005,47.776c-0.767,0-1.672,0-1.672-0.975c0-1.011,0.906-1.011,1.672-1.011h13.169v-1.393c0-0.663-0.035-1.22-1.289-1.22
			h-12.263c-0.732,0-1.672,0-1.672-1.01c0-1.046,0.906-1.046,1.672-1.046h13.064c1.986,0,2.752,1.115,2.752,2.404v6.097
			c0,0.905,0,2.856-2.927,2.856h-12.786c-0.801,0-1.812,0-1.812-1.08c0-1.081,0.975-1.081,1.812-1.081h11.985
			c0.836,0,1.463-0.104,1.463-1.393v-1.15H164.005z"/>
	</g>
	<g enable-background="new    ">
		<path fill="#FEFFEE" d="M206.71,58.766l7.908,8.083c0.279,0.314,0.523,0.697,0.523,1.185c0,0.627-0.453,1.255-1.185,1.255
			c-0.418,0-0.767-0.21-1.115-0.558l-7.943-8.117l-7.908,8.117c-0.279,0.313-0.662,0.558-1.149,0.558
			c-0.697,0-1.185-0.628-1.185-1.255c0-0.522,0.279-0.905,0.558-1.185l7.908-8.083l-7.908-8.083
			c-0.348-0.349-0.558-0.766-0.558-1.149c0-0.593,0.418-1.29,1.185-1.29c0.487,0,0.871,0.244,1.149,0.558l7.908,8.118l7.943-8.118
			c0.348-0.349,0.697-0.558,1.115-0.558c0.801,0,1.185,0.731,1.185,1.255c0,0.487-0.244,0.871-0.523,1.184L206.71,58.766z"/>
	</g>
	<g enable-background="new    ">
		<path fill="#C7F4F9" d="M240.706,46.592c1.359,0,1.951,0.696,1.951,2.056c0,0.766-0.453,3.031-2.543,6.305
			c0.697,0.836,1.603,1.812,2.439,2.718c0.767,0.871,0.801,0.906,0.801,1.254c0,0.627-0.418,1.081-1.045,1.081
			c-0.522,0-0.836-0.244-2.195-1.777c-0.731-0.836-0.801-0.906-1.01-1.185V70.7c0,0.836,0,1.951-1.149,1.951
			c-1.15,0-1.15-1.114-1.15-1.951V59.238c-1.045,1.15-3.623,3.833-4.459,3.833c-0.522,0-1.149-0.453-1.149-1.115
			c0-0.488,0.174-0.627,1.742-2.021c5.4-4.843,7.281-9.477,7.281-10.626c0-0.488-0.348-0.557-0.801-0.557h-5.365
			c-0.836,0-1.846,0-1.846-1.081c0-1.08,1.01-1.08,1.846-1.08h2.752v-4.111c0-0.871,0-1.951,1.185-1.951
			c1.149,0,1.149,1.114,1.149,1.951v4.111H240.706z M261.401,41.819c0.766,0,1.741,0,1.741,1.045c0,1.045-0.939,1.045-1.741,1.045
			h-16.41c-0.767,0-1.742,0-1.742-1.045c0-1.045,0.94-1.045,1.742-1.045H261.401z M260.216,57.078c1.741,0,2.752,1.22,2.752,2.543
			v9.791c0,1.358-1.08,2.508-2.752,2.508H246.21c-1.707,0-2.717-1.185-2.717-2.508v-9.791c0-1.393,1.08-2.543,2.717-2.543H260.216z
			 M244.956,48.333c0-2.299,1.846-2.299,2.509-2.299h11.74c2.091,0,2.509,1.324,2.509,2.299v4.704c0,1.393-1.324,2.089-2.752,2.089
			h-11.253c-2.544,0-2.753-1.776-2.753-2.089V48.333z M252.099,63.349v-3.972h-4.843c-0.384,0-1.394,0-1.394,1.359v2.613H252.099z
			 M245.862,65.474v2.891c0,1.359,1.01,1.359,1.394,1.359h4.843v-4.25H245.862z M248.335,48.194c-0.557,0-1.01,0.348-1.01,1.011
			v2.752c0,0.662,0.453,0.975,1.01,0.975h10.104c0.557,0,1.01-0.313,1.01-0.975v-2.752c0-0.697-0.487-1.011-1.01-1.011H248.335z
			 M260.703,63.349v-2.613c0-1.359-1.011-1.359-1.394-1.359h-4.946v3.972H260.703z M254.364,65.474v4.25h4.946
			c0.383,0,1.394,0,1.394-1.359v-2.891H254.364z"/>
		<path fill="#C7F4F9" d="M277.142,47.219c1.985,0,2.229,1.429,2.229,1.951c0,0.557-0.557,3.1-3.448,6.828
			c0.487,0.557,1.498,1.638,3.239,3.031c1.429,1.15,1.568,1.22,1.568,1.638c0,0.801-0.696,1.184-1.114,1.184
			c-0.768,0-2.928-1.672-4.738-3.623V70.56c0,0.872,0,1.882-1.15,1.882c-1.114,0-1.114-1.045-1.114-1.882V59.586
			c-1.464,1.254-4.355,3.38-5.261,3.38c-0.488,0-1.114-0.418-1.114-1.15c0-0.662,0.278-0.835,1.393-1.532
			c8.014-5.051,8.849-10.069,8.849-10.208c0-0.522-0.348-0.522-0.592-0.522h-6.654c-0.906,0-1.951,0-1.951-1.15
			c0-1.184,1.081-1.184,1.951-1.184h3.38v-4.808c0-0.872,0-1.881,1.149-1.881c1.115,0,1.115,1.044,1.115,1.881v4.808H277.142z
			 M282.297,69.133V49.797c0-0.871,0-1.916,1.149-1.916s1.149,1.081,1.149,1.916v19.336h3.729V42.411c0-0.906,0-1.881,1.185-1.881
			c1.149,0,1.149,1.01,1.149,1.881v9.406h5.539c0.906,0,1.986,0,1.986,1.22c0,1.149-1.115,1.149-1.986,1.149h-5.539v14.946h5.992
			c0.905,0,1.951,0,1.951,1.149c0,1.185-1.08,1.185-1.951,1.185h-16.792c-0.871,0-1.951,0-1.951-1.185
			c0-1.149,1.08-1.149,1.951-1.149H282.297z"/>
	</g>
	<g enable-background="new    ">
		<path fill="#FEFFEE" d="M318.8,61.17c0-1.359-0.453-1.498-1.115-1.498h-2.578c-0.766,0-1.776,0-1.776-1.08
			c0-1.081,0.975-1.081,1.776-1.081h4.181c0.279,0,1.812,0.348,1.812,2.543v8.292c0,0.941,0.871,2.613,2.787,3.38
			c1.185,0.487,2.404,0.592,4.285,0.592h14.911c0.802,0,1.812,0,1.812,1.08c0,1.115-0.976,1.115-1.812,1.115H327.51
			c-1.742,0-5.366-0.174-7.631-3.484c-1.254,1.115-4.563,3.728-5.714,3.728c-0.73,0-1.079-0.592-1.079-1.08
			c0-0.628,0.21-0.767,2.125-1.986c0.522-0.349,1.986-1.324,3.658-2.962c-0.034-0.209-0.069-0.279-0.069-0.453V61.17z
			 M320.647,50.405c0,0.522-0.418,1.15-1.185,1.15c-0.593,0-0.731-0.174-1.847-1.707c-0.976-1.29-2.021-2.474-3.101-3.624
			c-0.592-0.627-0.837-0.94-0.837-1.358c0-0.836,0.837-1.289,1.429-1.115C315.943,44.03,320.647,49.291,320.647,50.405z
			 M339.32,50.962c2.961,0,2.961,2.09,2.961,2.369v8.118c0,0.313,0,2.369-2.961,2.369h-5.017v2.16h8.675
			c0.767,0,1.742,0,1.742,1.046c0,1.045-0.94,1.045-1.742,1.045h-8.675v1.777c0,0.836,0,1.881-1.149,1.881
			c-1.15,0-1.15-1.045-1.15-1.881v-1.777h-7.942c-0.767,0-1.742,0-1.742-1.01c0-1.081,0.94-1.081,1.742-1.081h7.942v-2.16h-5.12
			c-2.962,0-2.962-2.125-2.962-2.369v-8.118c0-0.209,0.035-1.289,1.01-1.95c0.663-0.454,1.255-0.419,1.952-0.419h5.12v-2.09h-7.769
			c-0.836,0-1.881,0-1.881-1.114c0-1.115,1.045-1.115,1.881-1.115h7.769v-1.498c0-0.837,0-1.881,1.15-1.881
			c1.149,0,1.149,1.01,1.149,1.881v1.498h7.978c0.836,0,1.882,0,1.882,1.115c0,1.114-1.046,1.114-1.882,1.114h-7.978v2.09H339.32z
			 M332.003,56.293v-3.31h-4.424c-0.593,0-1.394,0.174-1.394,1.08v2.23H332.003z M326.186,58.384v2.299
			c0,0.905,0.801,1.08,1.394,1.08h4.424v-3.379H326.186z M340.121,56.293v-2.23c0-0.906-0.802-1.08-1.395-1.08h-4.424v3.31H340.121z
			 M334.303,58.384v3.379h4.424c0.593,0,1.395-0.174,1.395-1.08v-2.299H334.303z"/>
		<path fill="#FEFFEE" d="M377.009,50.788c0.662,0,1.498,0,1.498,0.871c0,0.906-0.801,0.906-1.498,0.906h-5.47v2.125h5.435
			c0.697,0,1.533,0,1.533,0.906c0,0.941-0.836,0.941-1.533,0.941h-5.435v2.16h6.41c0.767,0,1.707,0,1.707,1.01
			c0,1.046-0.905,1.046-1.707,1.046h-13.761c-3.171,0-3.24-1.185-3.24-2.997v-6.27c-1.533,1.707-1.707,1.916-2.265,1.916
			c-0.104,0-0.801,0-1.046-0.871c-0.208,0.035-0.278,0.035-0.87,0.035h-1.637v5.958c0.452-0.209,1.219-0.593,2.438-1.22
			c0.314-0.139,0.593-0.278,0.906-0.278c0.592,0,1.149,0.487,1.149,1.15c0,0.348-0.104,0.592-0.418,0.836
			c-0.592,0.453-2.856,1.533-4.075,2.056v10.73c0,1.462,0,3.239-2.788,3.239c-1.498,0-3.345-0.626-3.763-0.801
			c-0.349-0.174-0.696-0.488-0.696-1.011c0-0.488,0.384-1.08,1.08-1.08c0.453,0,2.438,0.627,2.856,0.627
			c0.801,0,0.977-0.244,0.977-1.324v-9.407c-1.046,0.453-3.833,1.533-4.565,1.533c-0.592,0-1.079-0.522-1.079-1.114
			c0-0.697,0.487-1.011,1.046-1.22c0.73-0.278,3.971-1.463,4.599-1.707v-6.968h-2.893c-0.767,0-1.742,0-1.742-1.01
			c0-1.045,0.941-1.045,1.742-1.045h2.893v-5.33c0-0.872,0-1.951,1.148-1.951c1.186,0,1.186,1.045,1.186,1.951v5.33h1.637
			c1.01,0,1.324,0,1.638,0.557c1.464-1.671,3.101-3.518,4.354-6.026c1.081-2.195,1.22-2.438,1.847-2.438
			c0.592,0,1.045,0.522,1.045,0.94c0,0.697-1.011,2.578-1.323,3.101h5.121c0.174-0.418,0.836-2.404,0.976-2.787
			c0.174-0.453,0.383-1.044,1.149-1.044c0.522,0,1.115,0.417,1.115,1.044c0,0.244-0.662,2.404-0.802,2.787h5.609
			c0.767,0,1.741,0,1.741,1.081c0,1.044-0.94,1.044-1.741,1.044h-5.958v2.021H377.009z M360.6,64.794c-0.767,0-1.707,0-1.707-1.011
			c0-1.044,0.94-1.044,1.707-1.044h11.148c0.593,0,2.265,0,2.265,1.498c0,0.383-0.139,0.941-0.243,1.22
			c-0.071,0.174-0.28,0.835-0.28,0.975c0,0.348,0.35,0.348,0.872,0.348h2.229c1.497,0,2.438,0.21,2.438,1.847
			c0,0.872-0.209,2.404-0.661,3.658c-0.628,1.812-1.568,2.822-4.879,2.822c-2.473,0-5.086-0.801-5.469-0.975
			c-0.349-0.139-0.662-0.488-0.662-0.976c0-0.418,0.244-1.01,0.976-1.01c0.175,0,0.348,0,1.115,0.209
			c0.87,0.244,2.438,0.627,3.867,0.627c1.01,0,3.414,0,3.414-3.344c0-0.383-0.035-0.697-0.697-0.697h-3.065
			c-0.558,0-2.091,0-2.091-1.393c0-0.383,0.593-2.056,0.593-2.404c0-0.349-0.209-0.349-0.767-0.349h-4.216
			c-0.696,4.11-2.09,7.629-7.212,10.242c-0.696,0.349-1.044,0.418-1.323,0.418c-0.627,0-1.149-0.383-1.149-1.044
			c0-0.697,0.313-0.872,1.672-1.568c3.971-2.056,5.296-4.877,5.714-8.047H360.6z M369.276,50.788v-2.021h-4.844
			c-0.661,0-1.149,0.104-1.149,1.22v0.801H369.276z M369.276,54.69v-2.125h-5.993v2.125H369.276z M363.282,56.537v0.906
			c0,0.976,0.07,1.254,1.186,1.254h4.808v-2.16H363.282z"/>
	</g>
</g>
<g id="補足">
</g>
</svg>
